54. FILM_CZ/S/sociální síť [81%] 38GB
73. FILM_CZ/A/a zítra budete mrtví [61%] 29GB
74. FILM_CZ/B/bratříčku, kde jsi [74%] 29GB
75. FILM_CZ/D/druhá šance [64%] 29GB
76. FILM_CZ/R/rytmická sekce [50%] 29GB
79. FILM_CZ/123/28 týdnů poté [66%] 28GB
80. FILM_CZ/Z/zlodějka knih [78%] 28GB
81. FILM_CZ/Ď/ďábel obléká pradu [69%] 28GB
89. FILM_CZ/O/onemanshow - the movie [48%] 27GB
103. FILM_CZ/M/matrix [78%] 24GB
108. FILM_CZ/I/invalid [75%] 23GB
114. FILM_CZ/A/atlas mraků [74%] 22GB
115. FILM_CZ/P/prci, prci, prcičky [71%] 22GB
116. FILM_CZ/P/prohnilí [84%] 22GB
125. FILM_CZ/S/svět podle prota [86%] 21GB
136. FILM_CZ/T/třinácté patro [74%] 20GB
143. FILM_CZ/P/predestination [74%] 19GB
146. FILM_CZ/R/rozbitý robot ron [75%] 19GB
158. FILM_CZ/H/hannibal [68%] 18GB
168. FILM_CZ/A/anna [66%] 17GB
171. FILM_CZ/S/smrtonosná past 3 [81%] 17GB
183. FILM_CZ/F/faunův labyrint [81%] 16GB
184. FILM_CZ/S/správci osudu [75%] 16GB
185. FILM_CZ/Ž/želary [76%] 16GB
199. FILM_CZ/T/twin peaks - fire walk with me [73%] 15GB
200. FILM_CZ/J/jméno růže [84%] 15GB
201. FILM_CZ/T/tankový prapor [66%] 15GB
202. FILM_CZ/V/vřískot [75%] 15GB
203. FILM_CZ/Č/čtyři pokoje [72%] 15GB
215. FILM_CZ/P/paprika [77%] 14GB
222. FILM_CZ/W/wasabi [67%] 14GB
223. FILM_CZ/B/básníci [72%] 14GB
224. FILM_CZ/H/hanebný pancharti [87%] 14GB
225. FILM_CZ/H/hlídač č.47 [65%] 14GB
226. FILM_CZ/J/jeden svět nestačí [77%] 14GB
227. FILM_CZ/M/machři [71%] 14GB
228. FILM_CZ/U/ukradli torzo jupitera [80%] 14GB
229. FILM_CZ/Ž/žhavé výstřely [84%] 14GB
249. FILM_CZ/R/ronin [73%] 13GB
257. FILM_CZ/123/6. den [57%] 13GB
258. FILM_CZ/H/habermannův mlýn [78%] 13GB
259. FILM_CZ/I/iracionální muž [67%] 13GB
260. FILM_CZ/K/krvavý diamant [84%] 13GB
261. FILM_CZ/M/město bohů [89%] 13GB
262. FILM_CZ/N/neviditelný [79%] 13GB
263. FILM_CZ/P/poslední samuraj [85%] 13GB
264. FILM_CZ/S/samaritán [57%] 13GB
265. FILM_CZ/V/vynález zkázy [86%] 13GB
266. FILM_CZ/Č/čtyřicítka na krku [58%] 13GB
297. FILM_CZ/123/9 a půl týdne [62%] 12GB
298. FILM_CZ/A/adaptace [74%] 12GB
299. FILM_CZ/A/apocalypto [78%] 12GB
300. FILM_CZ/H/honba za diamantem [78%] 12GB
301. FILM_CZ/H/hořkých sedmnáct [71%] 12GB
302. FILM_CZ/H/hoří, má panenko [85%] 12GB
303. FILM_CZ/I/incoming [59%] 12GB
304. FILM_CZ/M/metro [56%] 12GB
305. FILM_CZ/R/requiem za sen [88%] 12GB
306. FILM_CZ/S/smrt jí sluší [72%] 12GB
307. FILM_CZ/S/smrtonosná past [90%] 12GB
308. FILM_CZ/T/třináctka [63%] 12GB
309. FILM_CZ/V/velký červený pes clifford [57%] 12GB
310. FILM_CZ/Č/čínský syndrom [75%] 12GB
348. FILM_CZ/C/císařův pekař - pekařův císař [86%] 11GB
349. FILM_CZ/D/dvacet tisíc mil pod mořem [65%] 11GB
350. FILM_CZ/K/kult hákového kříže [88%] 11GB
351. FILM_CZ/L/legenda o opilém mistrovi [82%] 11GB
353. FILM_CZ/N/nic nás nerozdělí [80%] 11GB
354. FILM_CZ/O/obvyklí podezřelí [87%] 11GB
355. FILM_CZ/P/pelíšky [81%] 11GB
356. FILM_CZ/P/po strništi bos [66%] 11GB
357. FILM_CZ/P/poslední skaut [87%] 11GB
358. FILM_CZ/P/prvok, šampón, tečka a karel [68%] 11GB
359. FILM_CZ/P/přirozený talent [80%] 11GB
360. FILM_CZ/T/terminál [74%] 11GB
361. FILM_CZ/T/trávníkář [62%] 11GB
362. FILM_CZ/T/tři mušketýři [66%] 11GB
363. FILM_CZ/U/u mě dobrý [66%] 11GB
364. FILM_CZ/V/vox lux [60%] 11GB
365. FILM_CZ/V/vrah naoko [65%] 11GB
366. FILM_CZ/Z/zootopia [80%] 11GB
410. FILM_CZ/C/commando [67%] 10GB
411. FILM_CZ/L/let [59%] 10GB
412. FILM_CZ/L/lolita [76%] 10GB
413. FILM_CZ/L/lucie, postrach ulice [70%] 10GB
414. FILM_CZ/N/nezlomní [74%] 10GB
415. FILM_CZ/P/postřižiny [84%] 10GB
416. FILM_CZ/S/samuraj [81%] 10GB
417. FILM_CZ/T/třináct životů [87%] 10GB
418. FILM_CZ/Z/z paříže do paříže [79%] 10GB
471. FILM_CZ/123/10 dní bez mámy [54%] 9GB
472. FILM_CZ/A/agent bez minulosti [85%] 9GB
473. FILM_CZ/A/alenka v říši divů [72%] 9GB
474. FILM_CZ/D/dokonalý svět [70%] 9GB
475. FILM_CZ/H/hotel modrá hvězda [84%] 9GB
476. FILM_CZ/L/letec [74%] 9GB
477. FILM_CZ/M/město podivínů [69%] 9GB
478. FILM_CZ/M/můj soused zabiják [72%] 9GB
479. FILM_CZ/P/podfukáři 2 [63%] 9GB
480. FILM_CZ/P/poslední zůstává [72%] 9GB
481. FILM_CZ/P/pěnička a paraplíčko [70%] 9GB
482. FILM_CZ/S/smolař [74%] 9GB
483. FILM_CZ/S/smrt černého krále [76%] 9GB
484. FILM_CZ/S/sviňák [70%] 9GB
485. FILM_CZ/T/tři vteřiny [71%] 9GB
486. FILM_CZ/U/umučení krista [72%] 9GB
487. FILM_CZ/V/velký závod [65%] 9GB
488. FILM_CZ/V/vše je ztraceno [69%] 9GB
489. FILM_CZ/Z/zimní příběh [61%] 9GB
528. FILM_CZ/G/gremlins [73%] 8GB
536. FILM_CZ/L/lee [69%] 8GB
579. FILM_CZ/123/60 sekund [70%] 8GB
580. FILM_CZ/A/až na dno [62%] 8GB
581. FILM_CZ/B/bohové musejí být šílení 2 [73%] 8GB
582. FILM_CZ/B/božská relikvie 2 [78%] 8GB
583. FILM_CZ/B/byl jednou jeden král [87%] 8GB
584. FILM_CZ/D/delikatesy [75%] 8GB
585. FILM_CZ/D/den co den [65%] 8GB
586. FILM_CZ/D/drahokam [66%] 8GB
587. FILM_CZ/D/dva mezci pro slečnu sáru [72%] 8GB
588. FILM_CZ/D/dědictví aneb kurvahošigutntag [80%] 8GB
589. FILM_CZ/G/gangster ka + afričan [69%] 8GB
590. FILM_CZ/G/garfield ve filmu [59%] 8GB
591. FILM_CZ/H/hora mezi námi [65%] 8GB
592. FILM_CZ/I/indiana jones [84%] 8GB
593. FILM_CZ/J/jízda [59%] 8GB
594. FILM_CZ/K/kolja [86%] 8GB
595. FILM_CZ/L/labyrint [65%] 8GB
596. FILM_CZ/L/lovec démonů [42%] 8GB
597. FILM_CZ/M/mé druhé já [54%] 8GB
598. FILM_CZ/N/na hromnice o den více [85%] 8GB
599. FILM_CZ/N/nebezpečná krása [79%] 8GB
600. FILM_CZ/O/ostrov 2005 [76%] 8GB
601. FILM_CZ/S/s tebou mě baví svět [82%] 8GB
602. FILM_CZ/S/samotáři [84%] 8GB
603. FILM_CZ/S/smrtonosná zbraň [88%] 8GB
604. FILM_CZ/S/sólokapr [69%] 8GB
605. FILM_CZ/T/tajemství loňského léta [61%] 8GB
606. FILM_CZ/T/tancuj matyldo [78%] 8GB
607. FILM_CZ/T/tango & cash [64%] 8GB
608. FILM_CZ/T/tygr a drak [80%] 8GB
609. FILM_CZ/U/upír z feratu [54%] 8GB
610. FILM_CZ/V/vichr [74%] 8GB
611. FILM_CZ/V/vysoká hra [67%] 8GB
612. FILM_CZ/V/válka policajtů [68%] 8GB
613. FILM_CZ/Z/za branami pekla [72%] 8GB
614. FILM_CZ/Z/zlatokopky [54%] 8GB
615. FILM_CZ/Ú/údolí včel [85%] 8GB
616. FILM_CZ/Č/číslo 9 [72%] 8GB
700. FILM_CZ/A/adéla ještě nevečeřela [85%] 7GB
701. FILM_CZ/B/bruno [61%] 7GB
702. FILM_CZ/B/báječná léta pod psa [71%] 7GB
703. FILM_CZ/C/co jsme komu zase udělali [66%] 7GB
704. FILM_CZ/CH/chladnokrevný [54%] 7GB
705. FILM_CZ/D/dablér [69%] 7GB
707. FILM_CZ/D/dívka v modrém [71%] 7GB
708. FILM_CZ/E/ecce homo homolka [74%] 7GB
709. FILM_CZ/F/fantomas [70%] 7GB
710. FILM_CZ/H/hastrman [64%] 7GB
711. FILM_CZ/H/hodinový manžel [55%] 7GB
712. FILM_CZ/H/hodně štěstí, pane veliký [72%] 7GB
713. FILM_CZ/H/horší než smrt [78%] 7GB
714. FILM_CZ/I/idiot v paříži [72%] 7GB
715. FILM_CZ/J/jason bourne [66%] 7GB
716. FILM_CZ/J/jednotka příliš rychlého nasazení [79%] 7GB
717. FILM_CZ/L/lítá v tom [54%] 7GB
718. FILM_CZ/M/manželé stodolovi [59%] 7GB
719. FILM_CZ/M/matilda [69%] 7GB
720. FILM_CZ/M/metanol [77%] 7GB
721. FILM_CZ/M/mezi vlky [64%] 7GB
722. FILM_CZ/N/na samotě u lesa [77%] 7GB
723. FILM_CZ/N/nebezpečná lekce [48%] 7GB
724. FILM_CZ/N/nepohodlný [76%] 7GB
725. FILM_CZ/O/oddíl nula [58%] 7GB
726. FILM_CZ/O/oddělení q - vzkaz v láhvi [74%] 7GB
727. FILM_CZ/O/oddělení q - zabijáci [76%] 7GB
728. FILM_CZ/P/partie krásného dragouna [73%] 7GB
729. FILM_CZ/R/rozhněvaný muž [79%] 7GB
730. FILM_CZ/R/rozpuštěný a vypuštěný [84%] 7GB
731. FILM_CZ/S/sedmý syn [54%] 7GB
732. FILM_CZ/S/splašený vlak [73%] 7GB
733. FILM_CZ/S/sufražetka [67%] 7GB
734. FILM_CZ/S/světáci [81%] 7GB
735. FILM_CZ/T/telefonní budka [84%] 7GB
736. FILM_CZ/U/ubal a zmiz [53%] 7GB
737. FILM_CZ/V/vesničko má středisková [80%] 7GB
738. FILM_CZ/V/vetřelci [90%] 7GB
739. FILM_CZ/V/vražda v hotelu excelsior [74%] 7GB
740. FILM_CZ/Z/zákon mlčenlivosti [50%] 7GB
741. FILM_CZ/Z/závan smrti [53%] 7GB
818. FILM_CZ/P/pi [74%] 6GB
857. FILM_CZ/B/bledé modré oko [61%] 6GB
858. FILM_CZ/D/deník malého poseroutky [53%] 6GB
859. FILM_CZ/D/dívka v pavoučí síti [62%] 6GB
860. FILM_CZ/E/enola holmesová [61%] 6GB
861. FILM_CZ/F/forman vs. forman [77%] 6GB
862. FILM_CZ/G/gympl [62%] 6GB
863. FILM_CZ/H/hamlet [77%] 6GB
864. FILM_CZ/H/henryho deník [67%] 6GB
865. FILM_CZ/H/hon na ponorku [81%] 6GB
866. FILM_CZ/I/instalatér z tuchlovic [53%] 6GB
867. FILM_CZ/J/jak jsem se zamilovala do gangstera [70%] 6GB
868. FILM_CZ/J/jan hus [68%] 6GB
869. FILM_CZ/J/japonská mafie [72%] 6GB
870. FILM_CZ/J/jáchyme, hoď ho do stroje! [85%] 6GB
871. FILM_CZ/K/každý milion dobrý [58%] 6GB
872. FILM_CZ/K/knoflíkáři [80%] 6GB
873. FILM_CZ/K/konec krále delfínů [51%] 6GB
874. FILM_CZ/K/kruh [94%] 6GB
875. FILM_CZ/K/kříž cti [81%] 6GB
876. FILM_CZ/L/lev v zimě [75%] 6GB
877. FILM_CZ/L/lidé [43%] 6GB
878. FILM_CZ/M/maestro [82%] 6GB
879. FILM_CZ/M/margrete - královna severu [74%] 6GB
880. FILM_CZ/M/muž se zaječíma ušima [56%] 6GB
881. FILM_CZ/N/nepřítel pod ochranou [66%] 6GB
882. FILM_CZ/O/oddělení q - žena v kleci [74%] 6GB
883. FILM_CZ/O/operace poštmistr [67%] 6GB
884. FILM_CZ/P/pyšná princezna [82%] 6GB
885. FILM_CZ/P/příběh dealera [57%] 6GB
886. FILM_CZ/P/příliš dlouhé zásnuby [78%] 6GB
887. FILM_CZ/R/rebel ridge [70%] 6GB
888. FILM_CZ/S/sluha dvou pánů [78%] 6GB
889. FILM_CZ/S/smrt a život charlieho st. clouda [64%] 6GB
890. FILM_CZ/S/stockholm [62%] 6GB
891. FILM_CZ/S/sucho [63%] 6GB
892. FILM_CZ/T/ta dívka z fotky [77%] 6GB
893. FILM_CZ/V/velká krize [66%] 6GB
894. FILM_CZ/V/vem si mě [58%] 6GB
895. FILM_CZ/V/vetřelec [90%] 6GB
896. FILM_CZ/V/vlastníci [74%] 6GB
897. FILM_CZ/V/vrchní, prchni! [87%] 6GB
898. FILM_CZ/V/vtáčkovia, siroty a blázni [75%] 6GB
899. FILM_CZ/V/vyšehrad - fylm [68%] 6GB
900. FILM_CZ/Z/zpívání v dešti [86%] 6GB
901. FILM_CZ/chaplin [82%] 6GB
902. FILM_CZ/Ú/úkryt [77%] 6GB
903. FILM_CZ/Č/černí baroni [77%] 6GB
904. FILM_CZ/Č/čert ví proč [58%] 6GB
1008. FILM_CZ/O/oppenheimer [85%] 5GB
1022. FILM_CZ/R/road house [67%] 5GB
1096. FILM_CZ/123/10 pravidel, jak sbalit holku [56%] 5GB
1097. FILM_CZ/123/21 gramů [84%] 5GB
1098. FILM_CZ/123/8. míle [73%] 5GB
1099. FILM_CZ/A/a máme, co jsme chtěli [57%] 5GB
1100. FILM_CZ/A/anatomie zrady [72%] 5GB
1101. FILM_CZ/A/arvéd [64%] 5GB
1102. FILM_CZ/B/blaster 2 [79%] 5GB
1103. FILM_CZ/B/bobovy burgery ve filmu [70%] 5GB
1104. FILM_CZ/B/bratři [68%] 5GB
1105. FILM_CZ/CH/chip 'n dale [70%] 5GB
1106. FILM_CZ/CH/choking hazard [48%] 5GB
1107. FILM_CZ/D/darebáčci [75%] 5GB
1109. FILM_CZ/D/dvě slova jako klíč [49%] 5GB
1110. FILM_CZ/F/fešák hubert [77%] 5GB
1111. FILM_CZ/F/film roku [68%] 5GB
1112. FILM_CZ/F/flashdance [62%] 5GB
1113. FILM_CZ/G/grandhotel budapešť [80%] 5GB
1114. FILM_CZ/H/hašišbaba [67%] 5GB
1115. FILM_CZ/H/hodinářův učeň [59%] 5GB
1116. FILM_CZ/H/hrabě monte christo [83%] 5GB
1117. FILM_CZ/H/hrozba smrti [63%] 5GB
1118. FILM_CZ/H/hvězda [72%] 5GB
1119. FILM_CZ/I/identita [76%] 5GB
1120. FILM_CZ/J/jak přicházejí sny [74%] 5GB
1121. FILM_CZ/J/jednotka všedního nasazení [48%] 5GB
1122. FILM_CZ/J/jen na skok [59%] 5GB
1123. FILM_CZ/K/krev zmizelého [63%] 5GB
1124. FILM_CZ/K/kristian [72%] 5GB
1125. FILM_CZ/K/krásno [55%] 5GB
1126. FILM_CZ/K/kuky se vrací [70%] 5GB
1127. FILM_CZ/K/kulka pro generála [68%] 5GB
1128. FILM_CZ/L/lepší svět [79%] 5GB
1129. FILM_CZ/L/letový režim [47%] 5GB
1130. FILM_CZ/L/limonádový joe [86%] 5GB
1131. FILM_CZ/M/musíme si pomáhat [85%] 5GB
1132. FILM_CZ/M/muži v naději [67%] 5GB
1133. FILM_CZ/M/myška a medvěd na cestách [73%] 5GB
1134. FILM_CZ/N/na nože [68%] 5GB
1135. FILM_CZ/N/nabarvené ptáče [68%] 5GB
1136. FILM_CZ/N/nebe a země [80%] 5GB
1137. FILM_CZ/N/nejhorší obavy [72%] 5GB
1138. FILM_CZ/O/o bozích a lidech [71%] 5GB
1139. FILM_CZ/O/obchodník s deštěm [81%] 5GB
1140. FILM_CZ/O/opičí muž [68%] 5GB
1141. FILM_CZ/O/ostře sledované vlaky [83%] 5GB
1142. FILM_CZ/P/parazit [84%] 5GB
1143. FILM_CZ/P/past [80%] 5GB
1144. FILM_CZ/P/pixely [59%] 5GB
1145. FILM_CZ/P/plavkyně [69%] 5GB
1146. FILM_CZ/P/po čem muži touží [66%] 5GB
1147. FILM_CZ/P/podmáznuté přijímačky [69%] 5GB
1148. FILM_CZ/P/pravda z díry [52%] 5GB
1149. FILM_CZ/P/princ a večernice [76%] 5GB
1150. FILM_CZ/P/pupendo [72%] 5GB
1151. FILM_CZ/P/pán šelem [58%] 5GB
1152. FILM_CZ/P/přes kosti mrtvých [60%] 5GB
1153. FILM_CZ/R/rytíři spravedlnosti [83%] 5GB
1154. FILM_CZ/S/saturnin [77%] 5GB
1155. FILM_CZ/S/slepý muž, který neviděl titanic [71%] 5GB
1156. FILM_CZ/S/soumrak samurajů [76%] 5GB
1157. FILM_CZ/S/soused [57%] 5GB
1158. FILM_CZ/S/spolu [70%] 5GB
1159. FILM_CZ/S/strach nad městem [76%] 5GB
1160. FILM_CZ/S/stvořitel [62%] 5GB
1161. FILM_CZ/S/sázka na smrt [64%] 5GB
1162. FILM_CZ/T/tajemství a smysl života [48%] 5GB
1163. FILM_CZ/T/tiché místo - první den [54%] 5GB
1164. FILM_CZ/T/toman [68%] 5GB
1165. FILM_CZ/T/trojitá hrozba [53%] 5GB
1166. FILM_CZ/U/utajený pasažér [51%] 5GB
1167. FILM_CZ/V/velká španělská loupež [64%] 5GB
1168. FILM_CZ/V/válka vynálezců [61%] 5GB
1169. FILM_CZ/V/všiváci [44%] 5GB
1170. FILM_CZ/Z/zběsilá krev [60%] 5GB
1171. FILM_CZ/Z/zloději a lháři [46%] 5GB
1172. FILM_CZ/Z/zločinec [80%] 5GB
1173. FILM_CZ/Z/zvuk svobody [73%] 5GB
1174. FILM_CZ/Z/zápisník alkoholičky [68%] 5GB
1175. FILM_CZ/Z/zátopek [76%] 5GB
1176. FILM_CZ/Č/čelisti [85%] 5GB
1177. FILM_CZ/Č/čínská čtvrť [84%] 5GB
1178. FILM_CZ/Č/číslo 5 žije 2 [62%] 5GB
1179. FILM_CZ/Ď/ďáblův uzel [64%] 5GB
1180. FILM_CZ/Š/šakal [70%] 5GB
1181. FILM_CZ/Š/šestý den [57%] 5GB
1182. FILM_CZ/Ž/životy druhých [85%] 5GB
1225. FILM_CZ/B/barbie [71%] 4GB
1269. FILM_CZ/F/forest gump [88%] 4GB
1335. FILM_CZ/R/radius [62%] 4GB
1420. FILM_CZ/123/13 minut [80%] 4GB
1421. FILM_CZ/123/27 šatů [59%] 4GB
1422. FILM_CZ/123/610 metrů nad zemí [68%] 4GB
1423. FILM_CZ/123/7500 [63%] 4GB
1424. FILM_CZ/A/adam [72%] 4GB
1425. FILM_CZ/A/andělé mezi námi [75%] 4GB
1426. FILM_CZ/A/anglický pacient [79%] 4GB
1427. FILM_CZ/A/atentát [85%] 4GB
1428. FILM_CZ/A/atlas [56%] 4GB
1429. FILM_CZ/B/banger [54%] 4GB
1430. FILM_CZ/B/beetlejuice beetlejuice [67%] 4GB
1431. FILM_CZ/B/blondýnka [62%] 4GB
1432. FILM_CZ/B/bouchači a bouchačky [69%] 4GB
1433. FILM_CZ/B/bábovky [58%] 4GB
1434. FILM_CZ/B/bílá paní [74%] 4GB
1435. FILM_CZ/C/cikáni jdou do nebe [71%] 4GB
1436. FILM_CZ/C/co jsme komu udělali [61%] 4GB
1437. FILM_CZ/C/cukrová bouda [76%] 4GB
1438. FILM_CZ/D/dej mi křídla [61%] 4GB
1439. FILM_CZ/D/discopříběh 2 [37%] 4GB
1440. FILM_CZ/D/dobrý will hunting [88%] 4GB
1441. FILM_CZ/D/dungeons dragons - čest zlodějů [80%] 4GB
1442. FILM_CZ/D/díra [73%] 4GB
1443. FILM_CZ/D/dívka a moře [70%] 4GB
1444. FILM_CZ/D/dívka s pistolí [71%] 4GB
1445. FILM_CZ/D/děcka jsou v pohodě [72%] 4GB
1446. FILM_CZ/D/dědečkem proti své vůli [64%] 4GB
1447. FILM_CZ/E/extrakce [45%] 4GB
1448. FILM_CZ/G/galerie zlomených srdcí [58%] 4GB
1449. FILM_CZ/G/gangster, policajt a ďábel [72%] 4GB
1450. FILM_CZ/G/gillesova žena [71%] 4GB
1451. FILM_CZ/G/grace, kněžna monacká [57%] 4GB
1452. FILM_CZ/H/havel [63%] 4GB
1453. FILM_CZ/H/hellraiser [59%] 4GB
1454. FILM_CZ/H/hitch - lék pro moderního muže [73%] 4GB
1455. FILM_CZ/H/hledá se nemo [86%] 4GB
1456. FILM_CZ/H/hogo fogo homolka [68%] 4GB
1457. FILM_CZ/H/holka z 20. století [69%] 4GB
1458. FILM_CZ/H/holky bez zábran [61%] 4GB
1459. FILM_CZ/H/homolka a tobolka [69%] 4GB
1460. FILM_CZ/H/horizont události [70%] 4GB
1461. FILM_CZ/H/hořký život komika [64%] 4GB
1462. FILM_CZ/H/hrátky s čertem [73%] 4GB
1463. FILM_CZ/H/hurá do džungle [54%] 4GB
1464. FILM_CZ/I/il boemo [64%] 4GB
1465. FILM_CZ/I/indián [81%] 4GB
1466. FILM_CZ/J/jak dostat tatínka do polepšovny [87%] 4GB
1467. FILM_CZ/J/jak ztratit kluka v 10 dnech [62%] 4GB
1468. FILM_CZ/J/jako v bavlnce [70%] 4GB
1469. FILM_CZ/J/jedeme na teambuilding [46%] 4GB
1470. FILM_CZ/J/jeptiška [77%] 4GB
1471. FILM_CZ/J/jestli se rozzlobíme, budeme zlí [85%] 4GB
1472. FILM_CZ/K/kapky [49%] 4GB
1473. FILM_CZ/K/kate [64%] 4GB
1474. FILM_CZ/K/kdo se v tobě skrývá [58%] 4GB
1475. FILM_CZ/K/kolej [89%] 4GB
1476. FILM_CZ/K/komplic [65%] 4GB
1477. FILM_CZ/K/kostlivec [62%] 4GB
1478. FILM_CZ/K/krajina ve stínu [71%] 4GB
1479. FILM_CZ/K/krakonošovo tajemství [66%] 4GB
1480. FILM_CZ/K/krakonošův poklad [69%] 4GB
1481. FILM_CZ/K/král tweety [57%] 4GB
1482. FILM_CZ/K/královna [64%] 4GB
1483. FILM_CZ/K/křidýlko nebo stehýnko [83%] 4GB
1484. FILM_CZ/L/lakomec [78%] 4GB
1485. FILM_CZ/L/loupež století [52%] 4GB
1486. FILM_CZ/L/lví král [87%] 4GB
1487. FILM_CZ/L/líbáš jako bůh [49%] 4GB
1488. FILM_CZ/M/malá smrt [78%] 4GB
1489. FILM_CZ/M/malý princ [81%] 4GB
1490. FILM_CZ/M/mandolína kapitána corelliho [64%] 4GB
1491. FILM_CZ/M/marie [70%] 4GB
1492. FILM_CZ/M/masaryk [70%] 4GB
1493. FILM_CZ/M/mastičkář [82%] 4GB
1494. FILM_CZ/M/matka v trapu [41%] 4GB
1495. FILM_CZ/M/mazaný filip [65%] 4GB
1496. FILM_CZ/M/misantrop [71%] 4GB
1497. FILM_CZ/M/modigliani [72%] 4GB
1498. FILM_CZ/M/má úžasná wanda [61%] 4GB
1499. FILM_CZ/N/na konci tunelu [70%] 4GB
1500. FILM_CZ/N/na krátko [57%] 4GB
1501. FILM_CZ/N/na západní frontě klid [73%] 4GB
1502. FILM_CZ/N/nejhorší golfista na světě [72%] 4GB
1503. FILM_CZ/N/nesnáším tě, lásko [64%] 4GB
1504. FILM_CZ/N/nikdy nejsme sami [56%] 4GB
1505. FILM_CZ/N/nikdy neodvracej zrak [81%] 4GB
1506. FILM_CZ/N/notting hill [71%] 4GB
1507. FILM_CZ/O/obchodník se smrtí [86%] 4GB
1508. FILM_CZ/O/občanský průkaz [79%] 4GB
1509. FILM_CZ/O/obžalovaný [73%] 4GB
1510. FILM_CZ/O/oddělení q - složka 64 [81%] 4GB
1511. FILM_CZ/O/osmy [76%] 4GB
1512. FILM_CZ/O/otec stu [63%] 4GB
1513. FILM_CZ/O/out of the furnace [68%] 4GB
1514. FILM_CZ/P/pachuť pomsty [66%] 4GB
1515. FILM_CZ/P/paříž 36 [70%] 4GB
1516. FILM_CZ/P/pearl harbor [62%] 4GB
1517. FILM_CZ/P/philadelphia [77%] 4GB
1518. FILM_CZ/P/planeta osamělých srdcí [49%] 4GB
1519. FILM_CZ/P/policajt z paříže [47%] 4GB
1520. FILM_CZ/P/pondělí [53%] 4GB
1521. FILM_CZ/P/ponor [48%] 4GB
1522. FILM_CZ/P/posraný jaro je ve vzduchu [47%] 4GB
1523. FILM_CZ/P/probudím se včera [66%] 4GB
1524. FILM_CZ/P/pěkná rebelka [59%] 4GB
1525. FILM_CZ/P/přes prsty [56%] 4GB
1526. FILM_CZ/P/přirozené světlo [53%] 4GB
1527. FILM_CZ/P/příliš osobní známost [46%] 4GB
1528. FILM_CZ/R/requiem pro panenku [78%] 4GB
1529. FILM_CZ/R/romeo a julie [70%] 4GB
1530. FILM_CZ/R/rozkoš [47%] 4GB
1531. FILM_CZ/R/rychlá rota [66%] 4GB
1532. FILM_CZ/S/sama v čase normálnosti [68%] 4GB
1533. FILM_CZ/S/sedmero krkavců [75%] 4GB
1534. FILM_CZ/S/slavnosti sněženek [77%] 4GB
1535. FILM_CZ/S/smrt krásných srnců [76%] 4GB
1536. FILM_CZ/S/smrt sa volá engelchen [74%] 4GB
1537. FILM_CZ/S/sněžný kluk [75%] 4GB
1538. FILM_CZ/S/srážka s láskou [67%] 4GB
1539. FILM_CZ/S/strach má velké oči [81%] 4GB
1540. FILM_CZ/S/strom života [61%] 4GB
1541. FILM_CZ/S/stín smrtihlava [50%] 4GB
1542. FILM_CZ/S/superlék [63%] 4GB
1543. FILM_CZ/T/thelma a luisa [76%] 4GB
1544. FILM_CZ/T/to se mi snad zdá [67%] 4GB
1545. FILM_CZ/T/trainspotting [81%] 4GB
1546. FILM_CZ/T/téměř dokonalá tajemství [73%] 4GB
1547. FILM_CZ/U/u nás na farmě [57%] 4GB
1548. FILM_CZ/U/ufo [62%] 4GB
1549. FILM_CZ/U/učitelka [76%] 4GB
1550. FILM_CZ/V/v pasti [73%] 4GB
1551. FILM_CZ/V/vaginátor [73%] 4GB
1552. FILM_CZ/V/ve stínu [79%] 4GB
1553. FILM_CZ/V/velká hra [76%] 4GB
1554. FILM_CZ/V/vesmír mezi námi [65%] 4GB
1555. FILM_CZ/V/vesmírní kovbojové [64%] 4GB
1556. FILM_CZ/V/veterán [70%] 4GB
1557. FILM_CZ/V/vikingové [66%] 4GB
1558. FILM_CZ/V/vyproštění [69%] 4GB
1559. FILM_CZ/V/výjimeční [75%] 4GB
1560. FILM_CZ/V/vůně cibule [72%] 4GB
1561. FILM_CZ/W/wallace a gromit - pomstu poznáš podle peří [81%] 4GB
1562. FILM_CZ/Z/zabiják [67%] 4GB
1563. FILM_CZ/Z/zabiják proti své vůli [66%] 4GB
1564. FILM_CZ/Z/zabít reagana [59%] 4GB
1565. FILM_CZ/Z/zapomenutá země [67%] 4GB
1566. FILM_CZ/Z/zbytečná krutost [80%] 4GB
1567. FILM_CZ/Z/zlobivá devítka [52%] 4GB
1568. FILM_CZ/Z/zprávy ze světa [67%] 4GB
1569. FILM_CZ/Z/zuřivost v krvi [63%] 4GB
1570. FILM_CZ/Z/záhada hlavolamu [79%] 4GB
1571. FILM_CZ/Z/zóna zájmu [70%] 4GB
1572. FILM_CZ/Ú/úsměvy smutných mužů [71%] 4GB
1573. FILM_CZ/Ú/úsvit [68%] 4GB
1574. FILM_CZ/Č/čistič [58%] 4GB
1575. FILM_CZ/Č/čtyři vraždy stačí, drahoušku [75%] 4GB
1576. FILM_CZ/Ř/řezníci [76%] 4GB
1577. FILM_CZ/Š/šachová partie [56%] 4GB
1578. FILM_CZ/Š/šaman [71%] 4GB
1579. FILM_CZ/Š/šampióni 2018 [77%] 4GB
1580. FILM_CZ/Š/šampióni 2023 [68%] 4GB
1581. FILM_CZ/Š/šest medvědů s cibulkou [69%] 4GB
1582. FILM_CZ/Š/špindl [44%] 4GB
1682. FILM_CZ/F/fatima [66%] 3GB
1764. FILM_CZ/S/se7en [86%] 3GB
1875. FILM_CZ/123/47 ronin [63%] 3GB
1876. FILM_CZ/A/abstinent [50%] 3GB
1877. FILM_CZ/A/alois nebel [66%] 3GB
1878. FILM_CZ/A/amadeus [83%] 3GB
1879. FILM_CZ/A/amen [78%] 3GB
1880. FILM_CZ/A/americká elegie [69%] 3GB
1881. FILM_CZ/A/amerika [63%] 3GB
1882. FILM_CZ/A/archie [70%] 3GB
1883. FILM_CZ/B/blbec k večeři [84%] 3GB
1884. FILM_CZ/B/bláznivá mise 2 [81%] 3GB
1885. FILM_CZ/B/bláznivá mise 3 [65%] 3GB
1886. FILM_CZ/B/bláznivá mise [77%] 3GB
1887. FILM_CZ/B/bohové [80%] 3GB
1888. FILM_CZ/B/bony a klid [70%] 3GB
1889. FILM_CZ/B/božská relikvie [76%] 3GB
1890. FILM_CZ/B/brouk [73%] 3GB
1891. FILM_CZ/B/bílá nemoc [84%] 3GB
1892. FILM_CZ/B/bělásek [76%] 3GB
1893. FILM_CZ/C/cesta do tmy [58%] 3GB
1894. FILM_CZ/C/co kdyby [78%] 3GB
1895. FILM_CZ/C/co s láskou [68%] 3GB
1896. FILM_CZ/CH/chlapec a volavka [76%] 3GB
1897. FILM_CZ/CH/chyby [74%] 3GB
1898. FILM_CZ/CH/chyť mě, když to dokážeš [87%] 3GB
1899. FILM_CZ/D/delfíní muž [78%] 3GB
1900. FILM_CZ/D/den před krizí [71%] 3GB
1901. FILM_CZ/D/den šakala 1973 [85%] 3GB
1902. FILM_CZ/D/deníček moderního fotra [59%] 3GB
1903. FILM_CZ/D/deset důvodů, proč tě nenávidím [71%] 3GB
1904. FILM_CZ/D/divoké včely [66%] 3GB
1905. FILM_CZ/D/dobrý synek [66%] 3GB
1906. FILM_CZ/D/dokonalý trik [88%] 3GB
1907. FILM_CZ/D/duše jako kaviár [53%] 3GB
1908. FILM_CZ/D/dým bramborové natě [78%] 3GB
1909. FILM_CZ/D/dědictví vášně [71%] 3GB
1910. FILM_CZ/D/děti noci [60%] 3GB
1911. FILM_CZ/D/dům u jezera [68%] 3GB
1912. FILM_CZ/E/eliška má ráda divočinu [36%] 3GB
1913. FILM_CZ/E/exodus [67%] 3GB
1914. FILM_CZ/F/fabelmanovi [77%] 3GB
1915. FILM_CZ/F/fantastická výměna [56%] 3GB
1916. FILM_CZ/F/fantom morrisvillu [72%] 3GB
1917. FILM_CZ/F/faunovo velmi pozdní odpoledne [70%] 3GB
1918. FILM_CZ/F/festival pana rifkina [58%] 3GB
1919. FILM_CZ/F/fesťák [48%] 3GB
1920. FILM_CZ/F/francouzská spojka [82%] 3GB
1921. FILM_CZ/F/franta mimozemšťan [34%] 3GB
1922. FILM_CZ/F/furiosa [76%] 3GB
1923. FILM_CZ/G/gia [70%] 3GB
1924. FILM_CZ/H/hadí princ [77%] 3GB
1925. FILM_CZ/H/hledač min [82%] 3GB
1926. FILM_CZ/H/hledání země nezemě [84%] 3GB
1927. FILM_CZ/H/hněv boží [51%] 3GB
1928. FILM_CZ/H/home again [58%] 3GB
1929. FILM_CZ/H/hon [88%] 3GB
1930. FILM_CZ/H/hra [86%] 3GB
1931. FILM_CZ/H/hra na boha [51%] 3GB
1932. FILM_CZ/H/hurvínek a kouzelné muzeum [44%] 3GB
1933. FILM_CZ/H/hystérie [81%] 3GB
1934. FILM_CZ/I/ingredience lásky [50%] 3GB
1935. FILM_CZ/J/jak vytrhnout velrybě stoličku [85%] 3GB
1936. FILM_CZ/J/jan palach [66%] 3GB
1937. FILM_CZ/J/její tělo [57%] 3GB
1938. FILM_CZ/J/ještě není pozdě [57%] 3GB
1939. FILM_CZ/J/jiná smečka [70%] 3GB
1940. FILM_CZ/J/jmenuji se sam [79%] 3GB
1941. FILM_CZ/J/jsem všechny dívky [57%] 3GB
1942. FILM_CZ/K/katyň [70%] 3GB
1943. FILM_CZ/K/kawasakiho růže [72%] 3GB
1944. FILM_CZ/K/kdyby radši hořelo [63%] 3GB
1945. FILM_CZ/K/klan gucci [70%] 3GB
1946. FILM_CZ/K/klan létajících dýk [76%] 3GB
1947. FILM_CZ/K/kleopatra [59%] 3GB
1948. FILM_CZ/K/klub 27 [57%] 3GB
1949. FILM_CZ/K/klíšťata [52%] 3GB
1950. FILM_CZ/K/komorná [77%] 3GB
1951. FILM_CZ/K/konečná [56%] 3GB
1952. FILM_CZ/K/kontakt [71%] 3GB
1953. FILM_CZ/K/kouř [79%] 3GB
1954. FILM_CZ/K/kozy léčí [60%] 3GB
1955. FILM_CZ/K/kočičí odysea [81%] 3GB
1956. FILM_CZ/K/kočka a pes [52%] 3GB
1957. FILM_CZ/K/krtek - špionem v severní koreji [82%] 3GB
1958. FILM_CZ/K/krycí jméno lev [52%] 3GB
1959. FILM_CZ/K/kryptotrumf [54%] 3GB
1960. FILM_CZ/K/kryštof [52%] 3GB
1961. FILM_CZ/K/království nebeské [73%] 3GB
1962. FILM_CZ/K/kubánská spojka [56%] 3GB
1963. FILM_CZ/K/kurz manželské touhy [51%] 3GB
1964. FILM_CZ/K/kára plná bolesti [79%] 3GB
1965. FILM_CZ/K/křídla vánoc [60%] 3GB
1966. FILM_CZ/L/leon [73%] 3GB
1967. FILM_CZ/L/lepší zítřek [79%] 3GB
1968. FILM_CZ/L/letiště [48%] 3GB
1969. FILM_CZ/L/letní úlet [53%] 3GB
1970. FILM_CZ/L/lotrando a zubejda [78%] 3GB
1971. FILM_CZ/L/lou [78%] 3GB
1972. FILM_CZ/L/láska na první polibek [51%] 3GB
1973. FILM_CZ/M/marťanské lodě [58%] 3GB
1974. FILM_CZ/M/matka vražda [42%] 3GB
1975. FILM_CZ/M/matka šampaňského [59%] 3GB
1976. FILM_CZ/M/maškaráda [48%] 3GB
1977. FILM_CZ/M/melancholie [93%] 3GB
1978. FILM_CZ/M/mladá dáma [60%] 3GB
1979. FILM_CZ/M/modrá laguna [53%] 3GB
1980. FILM_CZ/M/moje nejlepší kamarádka anna franková [63%] 3GB
1981. FILM_CZ/M/monty pythonův smysl života [83%] 3GB
1982. FILM_CZ/M/motorkáři [67%] 3GB
1983. FILM_CZ/M/mžitky [77%] 3GB
1984. FILM_CZ/N/nabít a zabít [79%] 3GB
1985. FILM_CZ/N/nejlepší přítel [64%] 3GB
1986. FILM_CZ/N/nejvyšší nabídka [83%] 3GB
1987. FILM_CZ/N/není čas umřít [73%] 3GB
1988. FILM_CZ/N/nepřítel před branami [82%] 3GB
1989. FILM_CZ/N/neznámý voják [77%] 3GB
1990. FILM_CZ/N/nikomu to neříkej [68%] 3GB
1991. FILM_CZ/N/nina [54%] 3GB
1992. FILM_CZ/N/nobadi [64%] 3GB
1993. FILM_CZ/N/noční klid [46%] 3GB
1994. FILM_CZ/N/národní třída [54%] 3GB
1995. FILM_CZ/O/oči války [71%] 3GB
1996. FILM_CZ/O/očima tammy faye [57%] 3GB
1997. FILM_CZ/P/pane, vy jste vdova [74%] 3GB
1998. FILM_CZ/P/pasti, pasti, pastičky [62%] 3GB
1999. FILM_CZ/P/pekelná díra [58%] 3GB
2000. FILM_CZ/P/pekelná noc [59%] 3GB
2001. FILM_CZ/P/pes [67%] 3GB
2002. FILM_CZ/P/pevné pouto [71%] 3GB
2003. FILM_CZ/P/planeta krull [69%] 3GB
2004. FILM_CZ/P/planeta teror [72%] 3GB
2005. FILM_CZ/P/po čem muži touží 2 [53%] 3GB
2006. FILM_CZ/P/podfu(c)k [87%] 3GB
2007. FILM_CZ/P/poklad byzantského kupce [72%] 3GB
2008. FILM_CZ/P/policajt na útěku [49%] 3GB
2009. FILM_CZ/P/polina [67%] 3GB
2010. FILM_CZ/P/pozdrav z palm beach [45%] 3GB
2011. FILM_CZ/P/pravda a spravedlnost [76%] 3GB
2012. FILM_CZ/P/pravá a levá ruka ďábla [80%] 3GB
2013. FILM_CZ/P/prime time [57%] 3GB
2014. FILM_CZ/P/promlčeno [73%] 3GB
2015. FILM_CZ/P/proti větru [65%] 3GB
2016. FILM_CZ/P/prázdniny s broučkem [52%] 3GB
2017. FILM_CZ/P/pusinky [60%] 3GB
2018. FILM_CZ/P/pytlákova schovanka aneb šlechetný milionář [71%] 3GB
2019. FILM_CZ/P/pánský klub [45%] 3GB
2020. FILM_CZ/P/přes palubu [69%] 3GB
2021. FILM_CZ/P/přicházejí v noci [57%] 3GB
2022. FILM_CZ/P/přišla v noci [65%] 3GB
2023. FILM_CZ/P/přátelé z dovolené [65%] 3GB
2024. FILM_CZ/P/případ delorean [61%] 3GB
2025. FILM_CZ/R/revolver [63%] 3GB
2026. FILM_CZ/R/roboti [54%] 3GB
2027. FILM_CZ/R/romance po irsku [55%] 3GB
2028. FILM_CZ/R/rozpolcená [50%] 3GB
2029. FILM_CZ/R/ruce v záruce [46%] 3GB
2030. FILM_CZ/R/rychle a nemožně [58%] 3GB
2031. FILM_CZ/S/scény z partnerského života [59%] 3GB
2032. FILM_CZ/S/seraphine [74%] 3GB
2033. FILM_CZ/S/servírka [59%] 3GB
2034. FILM_CZ/S/skrýš [64%] 3GB
2036. FILM_CZ/S/sladký život [56%] 3GB
2037. FILM_CZ/S/slídil [78%] 3GB
2038. FILM_CZ/S/smrtihlav [75%] 3GB
2039. FILM_CZ/S/snídaně u tiffanyho [81%] 3GB
2040. FILM_CZ/S/spalovač mrtvol [88%] 3GB
2041. FILM_CZ/S/spy [70%] 3GB
2042. FILM_CZ/S/srdečný pozdrav ze zeměkoule [66%] 3GB
2043. FILM_CZ/S/staříci [69%] 3GB
2044. FILM_CZ/S/strašák [57%] 3GB
2045. FILM_CZ/S/svobodné děti [69%] 3GB
2046. FILM_CZ/S/sweet girl [55%] 3GB
2047. FILM_CZ/S/syn boží [57%] 3GB
2048. FILM_CZ/S/sázka na nejistotu [76%] 3GB
2049. FILM_CZ/S/síla psa [61%] 3GB
2050. FILM_CZ/S/sólista [66%] 3GB
2051. FILM_CZ/T/tajemství vánoc [44%] 3GB
2052. FILM_CZ/T/taková zvláštní rodinka [71%] 3GB
2053. FILM_CZ/T/ten, kdo stojí v koutě [82%] 3GB
2054. FILM_CZ/T/tenkrát na vánoce [71%] 3GB
2055. FILM_CZ/T/teorie tygra [74%] 3GB
2056. FILM_CZ/T/tetovaný [76%] 3GB
2057. FILM_CZ/T/tuláci [63%] 3GB
2058. FILM_CZ/T/turner a hooch [63%] 3GB
2059. FILM_CZ/T/tvůj šťastný den [64%] 3GB
2060. FILM_CZ/T/tělo [64%] 3GB
2061. FILM_CZ/T/tři oříšky pro popelku [78%] 3GB
2062. FILM_CZ/U/umění sebeobrany [64%] 3GB
2063. FILM_CZ/U/uragán na jamajce [58%] 3GB
2064. FILM_CZ/U/uzly a pomeranče [68%] 3GB
2065. FILM_CZ/V/v hlavě 2 [79%] 3GB
2066. FILM_CZ/V/v nemilosti [76%] 3GB
2067. FILM_CZ/V/velké nic [70%] 3GB
2068. FILM_CZ/V/vendeta [64%] 3GB
2069. FILM_CZ/V/vidím tě všude [62%] 3GB
2070. FILM_CZ/V/vlny [88%] 3GB
2071. FILM_CZ/V/vlčí bouda [68%] 3GB
2072. FILM_CZ/V/vocasy na tripu [73%] 3GB
2073. FILM_CZ/V/vynes na horu svoj hrob [71%] 3GB
2074. FILM_CZ/V/válka barev [44%] 3GB
2075. FILM_CZ/V/vánoční příběh [53%] 3GB
2076. FILM_CZ/V/vážení přátelé, ano [67%] 3GB
2077. FILM_CZ/V/vítejte v marwenu [60%] 3GB
2078. FILM_CZ/V/výjimeční přátelé [62%] 3GB
2079. FILM_CZ/V/výkupné [63%] 3GB
2080. FILM_CZ/V/vše o nině [52%] 3GB
2081. FILM_CZ/V/všechno bude [59%] 3GB
2082. FILM_CZ/V/všechny cesty vedou do říma [51%] 3GB
2083. FILM_CZ/V/vůně vanilky [71%] 3GB
2084. FILM_CZ/Z/zahrada [79%] 3GB
2085. FILM_CZ/Z/zamilovaný profesor [42%] 3GB
2086. FILM_CZ/Z/zase nepoužitelní [52%] 3GB
2087. FILM_CZ/Z/zase vánoce [67%] 3GB
2088. FILM_CZ/Z/zatím tě miluju [47%] 3GB
2089. FILM_CZ/Z/zbožňovaný [79%] 3GB
2090. FILM_CZ/Z/zelňačka [70%] 3GB
2091. FILM_CZ/Z/země zítřka [60%] 3GB
2092. FILM_CZ/Z/zkouška ohněm [76%] 3GB
2093. FILM_CZ/Z/zloděj životů [62%] 3GB
2094. FILM_CZ/Z/zločin století [74%] 3GB
2095. FILM_CZ/Z/zmizení [86%] 3GB
2096. FILM_CZ/Z/zpátky do divočiny [66%] 3GB
2097. FILM_CZ/Z/zpátky ve hře [69%] 3GB
2098. FILM_CZ/Z/záhadné zmizení [66%] 3GB
2099. FILM_CZ/Z/zázraky se nedějí [68%] 3GB
2100. FILM_CZ/Č/čapkovy povídky [79%] 3GB
2101. FILM_CZ/Č/černobílý svět [86%] 3GB
2102. FILM_CZ/Č/číslo 5 žije [78%] 3GB
2103. FILM_CZ/Ř/říjnový polibek [55%] 3GB
2104. FILM_CZ/Š/šampióni 2 2023 [61%] 3GB
2105. FILM_CZ/Š/šarlatán [75%] 3GB
2106. FILM_CZ/Š/štěstí [72%] 3GB
2107. FILM_CZ/Š/štěstí jako lék [47%] 3GB
2108. FILM_CZ/Š/švindlíř [56%] 3GB
2109. FILM_CZ/Š/švédská trojka [51%] 3GB
2110. FILM_CZ/Š/šéfová [45%] 3GB
2111. FILM_CZ/Ž/žena v okně [57%] 3GB
2112. FILM_CZ/Ž/život je život [52%] 3GB
2127. FILM_CZ/E/everest [71%] 2GB
2241. FILM_CZ/B/bohemian rhapsody [80%] 2GB
2275. FILM_CZ/C/coco [84%] 2GB
2376. FILM_CZ/G/galaxy quest [73%] 2GB
2553. FILM_CZ/P/papillon [80%] 2GB
2574. FILM_CZ/R/rambo [70%] 2GB
2580. FILM_CZ/R/reminiscence [59%] 2GB
2629. FILM_CZ/S/spencer [68%] 2GB
2653. FILM_CZ/T/tesla [50%] 2GB
2828. FILM_CZ/T/thelma [70%] 2GB
2852. FILM_CZ/U/utoya [72%] 2GB
2884. FILM_CZ/123/10000 svatých [60%] 2GB
2885. FILM_CZ/123/127 hodin [81%] 2GB
2886. FILM_CZ/123/24 hodin života [60%] 2GB
2887. FILM_CZ/123/3 dny na zabití [61%] 2GB
2888. FILM_CZ/123/30 minut po půlnoci [73%] 2GB
2889. FILM_CZ/123/3:15 zemřeš [59%] 2GB
2890. FILM_CZ/123/8 žen [75%] 2GB
2891. FILM_CZ/A/amores perros [81%] 2GB
2892. FILM_CZ/A/annaismissing [79%] 2GB
2893. FILM_CZ/A/asistentka [57%] 2GB
2894. FILM_CZ/A/automata [48%] 2GB
2895. FILM_CZ/B/babička v mrazáku [64%] 2GB
2896. FILM_CZ/B/barbar conan [75%] 2GB
2897. FILM_CZ/B/bauhaus [66%] 2GB
2898. FILM_CZ/B/bazén [64%] 2GB
2899. FILM_CZ/B/beautiful boy [73%] 2GB
2900. FILM_CZ/B/bez věcí nad věcí [69%] 2GB
2901. FILM_CZ/B/bezva ženská na krku [66%] 2GB
2902. FILM_CZ/B/bouře duší [71%] 2GB
2903. FILM_CZ/B/buldozer [84%] 2GB
2904. FILM_CZ/B/burani v paříži [59%] 2GB
2905. FILM_CZ/B/bába z ledu [65%] 2GB
2906. FILM_CZ/B/běsnící moře [64%] 2GB
2907. FILM_CZ/C/cesta do lesa [62%] 2GB
2908. FILM_CZ/C/cesta k vykoupení [69%] 2GB
2909. FILM_CZ/C/cesta z města [66%] 2GB
2910. FILM_CZ/C/co je doma, to se počítá, pánové [64%] 2GB
2911. FILM_CZ/C/co jsme komu všichni udělali [70%] 2GB
2912. FILM_CZ/C/cosmos [64%] 2GB
2913. FILM_CZ/C/což takhle dát si špenát [70%] 2GB
2914. FILM_CZ/C/ctihodný občan [79%] 2GB
2915. FILM_CZ/CH/chiara lubichová [74%] 2GB
2916. FILM_CZ/D/dannyho parťáci 2 [64%] 2GB
2917. FILM_CZ/D/dannyho parťáci 3 [74%] 2GB
2918. FILM_CZ/D/dannyho parťáci [83%] 2GB
2919. FILM_CZ/D/darwinovy ceny [60%] 2GB
2920. FILM_CZ/D/dcera čarodějky [58%] 2GB
2921. FILM_CZ/D/denní směna [61%] 2GB
2922. FILM_CZ/D/devátá brána [68%] 2GB
2923. FILM_CZ/D/discopříběh 1 [53%] 2GB
2924. FILM_CZ/D/district 9 [79%] 2GB
2925. FILM_CZ/D/divize [60%] 2GB
2926. FILM_CZ/D/divoká řeka [67%] 2GB
2927. FILM_CZ/D/divá bára [69%] 2GB
2928. FILM_CZ/D/dogman [72%] 2GB
2929. FILM_CZ/D/dokonalá vražda [76%] 2GB
2930. FILM_CZ/D/drahé tety a já [66%] 2GB
2931. FILM_CZ/D/duhová kulička [72%] 2GB
2932. FILM_CZ/D/dva dny, jedna noc [71%] 2GB
2933. FILM_CZ/D/dívka v mlze [67%] 2GB
2934. FILM_CZ/D/dívka ve sklepě [64%] 2GB
2935. FILM_CZ/D/dům pro irene [73%] 2GB
2936. FILM_CZ/E/e.t. mimozemšťan [79%] 2GB
2937. FILM_CZ/E/egyptologové [69%] 2GB
2938. FILM_CZ/E/elektrizující život louise waina [68%] 2GB
2939. FILM_CZ/E/enrico piaggio - vespa [69%] 2GB
2940. FILM_CZ/E/enzo ferrari [70%] 2GB
2941. FILM_CZ/F/faktotum [68%] 2GB
2942. FILM_CZ/F/frank a lola [57%] 2GB
2943. FILM_CZ/G/gamer [57%] 2GB
2944. FILM_CZ/G/gattaca [78%] 2GB
2945. FILM_CZ/G/gentlemani [86%] 2GB
2946. FILM_CZ/G/grandhotel [61%] 2GB
2947. FILM_CZ/G/gringo [61%] 2GB
2948. FILM_CZ/G/gump, pes který naučil lidi žít [71%] 2GB
2949. FILM_CZ/H/hadí jed [72%] 2GB
2950. FILM_CZ/H/hazard [68%] 2GB
2951. FILM_CZ/H/hej rup! [77%] 2GB
2952. FILM_CZ/H/hele kámo, kdo tu vaří [56%] 2GB
2953. FILM_CZ/H/hledá se plyšák [59%] 2GB
2954. FILM_CZ/H/hledá se táta! [60%] 2GB
2955. FILM_CZ/H/hledání kamene mudrců [52%] 2GB
2956. FILM_CZ/H/hlubina [71%] 2GB
2957. FILM_CZ/H/holka na roztrhání [58%] 2GB
2958. FILM_CZ/H/holky z kalendáře [65%] 2GB
2959. FILM_CZ/H/house party [65%] 2GB
2960. FILM_CZ/H/hoši z brazílie [77%] 2GB
2961. FILM_CZ/H/hra o jablko [69%] 2GB
2962. FILM_CZ/H/hranice [73%] 2GB
2963. FILM_CZ/H/hrdina až do konce [68%] 2GB
2964. FILM_CZ/H/hurá do basy [63%] 2GB
2965. FILM_CZ/H/hádkovi [55%] 2GB
2966. FILM_CZ/J/j. edgar [65%] 2GB
2967. FILM_CZ/J/jdi a dívej se [83%] 2GB
2968. FILM_CZ/J/jdi za svým koněm [69%] 2GB
2969. FILM_CZ/J/jeden den [75%] 2GB
2970. FILM_CZ/J/jedna ruka netleská [70%] 2GB
2971. FILM_CZ/J/jiné verze tebe [57%] 2GB
2972. FILM_CZ/J/já nič neviem [56%] 2GB
2973. FILM_CZ/J/já, mé druhé já a irena [65%] 2GB
2974. FILM_CZ/K/kandahar [61%] 2GB
2975. FILM_CZ/K/karel, já a ty [61%] 2GB
2976. FILM_CZ/K/kdo zachrání grace b. jonesovou [46%] 2GB
2977. FILM_CZ/K/když chlap potká zbraň [55%] 2GB
2978. FILM_CZ/K/kluci nepláčou [83%] 2GB
2979. FILM_CZ/K/kluci z bromley [58%] 2GB
2980. FILM_CZ/K/kobry a užovky [76%] 2GB
2981. FILM_CZ/K/kokain [72%] 2GB
2982. FILM_CZ/K/koncert bez růží [45%] 2GB
2983. FILM_CZ/K/konzultant [54%] 2GB
2984. FILM_CZ/K/koník z ebenu [58%] 2GB
2985. FILM_CZ/K/kouzelný drak [77%] 2GB
2986. FILM_CZ/K/krajinka [74%] 2GB
2987. FILM_CZ/K/krakonoš a lyžníci [69%] 2GB
2988. FILM_CZ/K/kristové roky [66%] 2GB
2989. FILM_CZ/K/krotitelé duchů [83%] 2GB
2990. FILM_CZ/K/krvavé účty [44%] 2GB
2991. FILM_CZ/K/krvavý příliv [73%] 2GB
2992. FILM_CZ/K/krádež legendy [58%] 2GB
2993. FILM_CZ/K/král petr i. [66%] 2GB
2994. FILM_CZ/K/královská hra [69%] 2GB
2995. FILM_CZ/K/kung fu knedlík [52%] 2GB
2996. FILM_CZ/K/kupec benátský [75%] 2GB
2997. FILM_CZ/K/kuře melancholik [65%] 2GB
2998. FILM_CZ/K/kyslík [64%] 2GB
2999. FILM_CZ/L/lara croft - tomb raider [58%] 2GB
3000. FILM_CZ/L/legenda o perlách naga [53%] 2GB
3001. FILM_CZ/L/let číslo 93 [85%] 2GB
3002. FILM_CZ/L/lockdown [62%] 2GB
3003. FILM_CZ/L/lord of war [76%] 2GB
3004. FILM_CZ/L/loudilové [62%] 2GB
3005. FILM_CZ/L/loupež ve velkém stylu [70%] 2GB
3006. FILM_CZ/L/lovci pokladu [68%] 2GB
3007. FILM_CZ/L/love rosie [72%] 2GB
3008. FILM_CZ/L/láska pod kapotou [71%] 2GB
3009. FILM_CZ/L/láska s vůní oregana [50%] 2GB
3010. FILM_CZ/L/léto s kovbojem [66%] 2GB
3011. FILM_CZ/L/léto s marnie [82%] 2GB
3012. FILM_CZ/M/machete zabíjí [51%] 2GB
3013. FILM_CZ/M/malá rybka [71%] 2GB
3014. FILM_CZ/M/malá z rybárny [63%] 2GB
3015. FILM_CZ/M/manžel na hodinu [44%] 2GB
3016. FILM_CZ/M/mezi náhrobními kameny [70%] 2GB
3017. FILM_CZ/M/milosrdná noc [53%] 2GB
3018. FILM_CZ/M/mimořádná událost [63%] 2GB
3019. FILM_CZ/M/miss hanoi [56%] 2GB
3020. FILM_CZ/M/modelář [71%] 2GB
3021. FILM_CZ/M/monty pythonův život briana [86%] 2GB
3022. FILM_CZ/M/mumie [70%] 2GB
3023. FILM_CZ/M/muž odnikud [80%] 2GB
3024. FILM_CZ/M/muž z toronta [58%] 2GB
3025. FILM_CZ/M/muž, který poznal nekonečno [71%] 2GB
3026. FILM_CZ/M/myši patří do nebe [80%] 2GB
3027. FILM_CZ/M/město šílenců [65%] 2GB
3028. FILM_CZ/N/na chesilské pláži [63%] 2GB
3029. FILM_CZ/N/nebe [81%] 2GB
3030. FILM_CZ/N/nebezpečné pokušení [52%] 2GB
3031. FILM_CZ/N/nebezpečné známosti [77%] 2GB
3032. FILM_CZ/N/neboj, daleko neuteče [67%] 2GB
3033. FILM_CZ/N/nech svět světem [67%] 2GB
3034. FILM_CZ/N/nechte je všechny mluvit [59%] 2GB
3035. FILM_CZ/N/nejasná zpráva o konci světa [69%] 2GB
3036. FILM_CZ/N/nekonečná - nevystupovat [64%] 2GB
3037. FILM_CZ/N/nelítostní [64%] 2GB
3038. FILM_CZ/N/nerozluční [58%] 2GB
3039. FILM_CZ/N/nevinná [71%] 2GB
3040. FILM_CZ/N/nevěř nikomu [60%] 2GB
3041. FILM_CZ/N/nezměrnost noci [57%] 2GB
3042. FILM_CZ/N/než jsem tě poznala [80%] 2GB
3043. FILM_CZ/N/než ďábel zjistí, že seš mrtvej [73%] 2GB
3044. FILM_CZ/N/nikdo [78%] 2GB
3045. FILM_CZ/N/nikdy neříkej nikdy [55%] 2GB
3046. FILM_CZ/N/nimona [76%] 2GB
3047. FILM_CZ/N/noc na zemi [84%] 2GB
3048. FILM_CZ/N/noční můry z temnot [58%] 2GB
3049. FILM_CZ/N/něco za něco [58%] 2GB
3050. FILM_CZ/N/někdo to rád horké [88%] 2GB
3051. FILM_CZ/N/němá tajemství [78%] 2GB
3052. FILM_CZ/O/o sláve a tráve [69%] 2GB
3053. FILM_CZ/O/o zatoulané princezně [61%] 2GB
3054. FILM_CZ/O/obchodníci s bolestí [67%] 2GB
3055. FILM_CZ/O/ocean's 8 [75%] 2GB
3056. FILM_CZ/O/od kolébky do hrobu [57%] 2GB
3057. FILM_CZ/O/od soumraku do úsvitu [75%] 2GB
3058. FILM_CZ/O/orion a tma [60%] 2GB
3059. FILM_CZ/O/ostrov 2023 [52%] 2GB
3060. FILM_CZ/O/otec náš [60%] 2GB
3061. FILM_CZ/O/oči plné sněhu [62%] 2GB
3062. FILM_CZ/P/padesát odstínů svobody [49%] 2GB
3063. FILM_CZ/P/panství downton [73%] 2GB
3064. FILM_CZ/P/paní berta garlanová [59%] 2GB
3065. FILM_CZ/P/paní harrisová jede do paříže [68%] 2GB
3066. FILM_CZ/P/paralelní světy [64%] 2GB
3067. FILM_CZ/P/petr pan [64%] 2GB
3068. FILM_CZ/P/piano [83%] 2GB
3069. FILM_CZ/P/piko [67%] 2GB
3070. FILM_CZ/P/plážoví povaleči [58%] 2GB
3071. FILM_CZ/P/po čem ženy touží [65%] 2GB
3072. FILM_CZ/P/pod širým nebem [69%] 2GB
3073. FILM_CZ/P/podezřelá [70%] 2GB
3074. FILM_CZ/P/podivné dědictví [85%] 2GB
3075. FILM_CZ/P/podivuhodná dobrodružství paula harkera [59%] 2GB
3076. FILM_CZ/P/podivuhodný příběh henryho sugara [74%] 2GB
3077. FILM_CZ/P/pojedeme k moři [69%] 2GB
3078. FILM_CZ/P/pokoj v duši [60%] 2GB
3079. FILM_CZ/P/policajt ze školky [58%] 2GB
3080. FILM_CZ/P/policajti na baterky [56%] 2GB
3081. FILM_CZ/P/polnoc bude o päť minút [77%] 2GB
3082. FILM_CZ/P/pomoc, zmenšil jsem rodiče [51%] 2GB
3083. FILM_CZ/P/posedlý pacient [42%] 2GB
3084. FILM_CZ/P/poslední jednorožec [81%] 2GB
3085. FILM_CZ/P/potomci lidí [78%] 2GB
3086. FILM_CZ/P/pouze zvěř [66%] 2GB
3087. FILM_CZ/P/pozdravy od vraha [55%] 2GB
3088. FILM_CZ/P/pravdivý příběh [60%] 2GB
3089. FILM_CZ/P/pravidla moštárny [85%] 2GB
3090. FILM_CZ/P/pračlověk [58%] 2GB
3091. FILM_CZ/P/preclíková válka [59%] 2GB
3092. FILM_CZ/P/prezident blaník [64%] 2GB
3093. FILM_CZ/P/prezidentka [68%] 2GB
3094. FILM_CZ/P/princezna a písař [55%] 2GB
3095. FILM_CZ/P/princezna zakletá v čase [71%] 2GB
3096. FILM_CZ/P/pro mámu všechno [58%] 2GB
3097. FILM_CZ/P/pro tvé dobro [59%] 2GB
3098. FILM_CZ/P/probudím se zase včera [53%] 2GB
3099. FILM_CZ/P/prohnilí proti prohnilým [76%] 2GB
3100. FILM_CZ/P/prázdnota [57%] 2GB
3101. FILM_CZ/P/psaní do nebe [83%] 2GB
3102. FILM_CZ/P/psycho [85%] 2GB
3103. FILM_CZ/P/purpurové řeky [77%] 2GB
3104. FILM_CZ/P/pád anděla [64%] 2GB
3105. FILM_CZ/P/pád londýna [58%] 2GB
3106. FILM_CZ/P/páni kluci [85%] 2GB
3107. FILM_CZ/P/píseň jmen [61%] 2GB
3108. FILM_CZ/P/přežít vánoce [52%] 2GB
3109. FILM_CZ/P/připoutejte se, prosím 2 [73%] 2GB
3110. FILM_CZ/P/příběh gangstera - generál [66%] 2GB
3111. FILM_CZ/P/příběh gangstera - marbella [64%] 2GB
3112. FILM_CZ/P/příběh gangstera - nástup k moci [79%] 2GB
3113. FILM_CZ/P/příběh gangstera - pat tate [70%] 2GB
3114. FILM_CZ/P/příběh kmotra [74%] 2GB
3115. FILM_CZ/P/příběh stoleté ryby [72%] 2GB
3116. FILM_CZ/P/příběhy obyčejného šílenství [76%] 2GB
3117. FILM_CZ/P/případ colliny [76%] 2GB
3118. FILM_CZ/R/rebeka [59%] 2GB
3119. FILM_CZ/R/recept na lásku [62%] 2GB
3120. FILM_CZ/R/resistance [62%] 2GB
3121. FILM_CZ/R/rodinné trampoty oficiála tříšky [65%] 2GB
3122. FILM_CZ/R/rok na dědině [74%] 2GB
3123. FILM_CZ/R/román pro muže [50%] 2GB
3124. FILM_CZ/R/roznese tě na kopytech [50%] 2GB
3125. FILM_CZ/R/rošťáci [74%] 2GB
3126. FILM_CZ/R/rudá jako rubín [60%] 2GB
3127. FILM_CZ/R/rudý škorpión [60%] 2GB
3128. FILM_CZ/S/sametoví vrazi [58%] 2GB
3129. FILM_CZ/S/sběratel kostí [69%] 2GB
3130. FILM_CZ/S/scooby doo! prokletí nestvůry z jezera [40%] 2GB
3131. FILM_CZ/S/sedm hodin, abyste se zamilovali [63%] 2GB
3132. FILM_CZ/S/sedm statečných [90%] 2GB
3133. FILM_CZ/S/selský rozum [69%] 2GB
3134. FILM_CZ/S/sexmise [78%] 2GB
3135. FILM_CZ/S/sherlock holmes - znamení čtyř [64%] 2GB
3136. FILM_CZ/S/skleněný pokoj [49%] 2GB
3137. FILM_CZ/S/skála [86%] 2GB
3138. FILM_CZ/S/sluník a ludvík a sněhový stroj [77%] 2GB
3139. FILM_CZ/S/smrtelné lži [68%] 2GB
3140. FILM_CZ/S/smrtonosná past 2 [84%] 2GB
3141. FILM_CZ/S/smrtící krása [63%] 2GB
3142. FILM_CZ/S/sněhulák [65%] 2GB
3143. FILM_CZ/S/stanfordský vězeňský experiment [73%] 2GB
3144. FILM_CZ/S/starci [91%] 2GB
3145. FILM_CZ/S/steve jobs [72%] 2GB
3146. FILM_CZ/S/stockholmský syndrom [78%] 2GB
3147. FILM_CZ/S/stranger than fiction [75%] 2GB
3148. FILM_CZ/S/strom přání [80%] 2GB
3149. FILM_CZ/S/střídavka [51%] 2GB
3150. FILM_CZ/S/střípky [62%] 2GB
3151. FILM_CZ/S/svatba mého nejlepšího přítele [62%] 2GB
3152. FILM_CZ/S/sviňa [62%] 2GB
3153. FILM_CZ/S/sváteční rande [62%] 2GB
3154. FILM_CZ/S/svět podle daliborka [58%] 2GB
3155. FILM_CZ/S/synův stín [41%] 2GB
3156. FILM_CZ/T/tajemná zahrada [54%] 2GB
3157. FILM_CZ/T/tajemství hradu v karpatech [84%] 2GB
3158. FILM_CZ/T/tajemství santa vittorie [75%] 2GB
3159. FILM_CZ/T/tajná mise [68%] 2GB
3160. FILM_CZ/T/temnota [71%] 2GB
3161. FILM_CZ/T/temná věž [53%] 2GB
3162. FILM_CZ/T/ten největší [68%] 2GB
3163. FILM_CZ/T/tenkrát v hollywoodu [78%] 2GB
3164. FILM_CZ/T/teorie všeho [81%] 2GB
3165. FILM_CZ/T/teroristka [62%] 2GB
3166. FILM_CZ/T/tohle není hra [54%] 2GB
3167. FILM_CZ/T/trauma [60%] 2GB
3168. FILM_CZ/T/trojí život [61%] 2GB
3169. FILM_CZ/T/tváří v tvář [81%] 2GB
3170. FILM_CZ/T/tátova volha [67%] 2GB
3171. FILM_CZ/T/tátův drak [65%] 2GB
3172. FILM_CZ/T/téměř dokonalý zločin [76%] 2GB
3173. FILM_CZ/T/této noci v tomto vlaku [57%] 2GB
3174. FILM_CZ/T/tři dívky z facebooku [57%] 2GB
3175. FILM_CZ/T/tři muži a mladá dáma [52%] 2GB
3176. FILM_CZ/U/ucho [86%] 2GB
3177. FILM_CZ/U/ulice cloverfield 10 [70%] 2GB
3178. FILM_CZ/V/v oblacích [70%] 2GB
3179. FILM_CZ/V/v tom [73%] 2GB
3180. FILM_CZ/V/valentin dobrotivý [82%] 2GB
3181. FILM_CZ/V/ve spárech temnoty [45%] 2GB
3182. FILM_CZ/V/ve znamení lásky [65%] 2GB
3183. FILM_CZ/V/vejška [54%] 2GB
3184. FILM_CZ/V/velká prázdnota [58%] 2GB
3185. FILM_CZ/V/velká čínská zeď [56%] 2GB
3186. FILM_CZ/V/velký bazar [82%] 2GB
3187. FILM_CZ/V/venuše v kožichu [71%] 2GB
3188. FILM_CZ/V/vichr 2 [72%] 2GB
3189. FILM_CZ/V/vidím tě [68%] 2GB
3190. FILM_CZ/V/volání divočiny [69%] 2GB
3191. FILM_CZ/V/vpich [70%] 2GB
3192. FILM_CZ/V/vratné lahve [76%] 2GB
3193. FILM_CZ/V/vražda dvou milenců [49%] 2GB
3194. FILM_CZ/V/vražda v paříži [51%] 2GB
3195. FILM_CZ/V/vrcholová přitažlivost [84%] 2GB
3196. FILM_CZ/V/vzpomínka na benátky [62%] 2GB
3197. FILM_CZ/V/vánoce pod jednou střechou [54%] 2GB
3198. FILM_CZ/V/vánoční princ [50%] 2GB
3199. FILM_CZ/V/vánoční večírek [45%] 2GB
3200. FILM_CZ/V/vítejte na jihu [68%] 2GB
3201. FILM_CZ/V/věc - počátek [62%] 2GB
3202. FILM_CZ/V/věc [67%] 2GB
3203. FILM_CZ/V/věrnost [58%] 2GB
3204. FILM_CZ/V/věčně mladá [77%] 2GB
3205. FILM_CZ/V/všechno nebo nic [51%] 2GB
3206. FILM_CZ/V/všechno nejhorší [67%] 2GB
3207. FILM_CZ/V/všichni to vědí [63%] 2GB
3208. FILM_CZ/W/wonka [73%] 2GB
3209. FILM_CZ/X/x [65%] 2GB
3210. FILM_CZ/Y/yes day [58%] 2GB
3211. FILM_CZ/Z/za borovicovým hájem [73%] 2GB
3212. FILM_CZ/Z/zahradníkův rok [64%] 2GB
3213. FILM_CZ/Z/zapomenuté světlo [80%] 2GB
3214. FILM_CZ/Z/zatmění [67%] 2GB
3215. FILM_CZ/Z/zaujetí [68%] 2GB
3216. FILM_CZ/Z/začátek konce [72%] 2GB
3217. FILM_CZ/Z/zbouchnutá po záruce [49%] 2GB
3218. FILM_CZ/Z/zelená kniha [87%] 2GB
3219. FILM_CZ/Z/země nikoho [83%] 2GB
3220. FILM_CZ/Z/země nomádů [70%] 2GB
3221. FILM_CZ/Z/zmatkář [58%] 2GB
3222. FILM_CZ/Z/znamení [79%] 2GB
3223. FILM_CZ/Z/známí neznámí [65%] 2GB
3224. FILM_CZ/Z/zpátky na měsíc [71%] 2GB
3225. FILM_CZ/Z/ztraceni v mnichově [68%] 2GB
3226. FILM_CZ/Z/ztracené město [55%] 2GB
3227. FILM_CZ/Z/zátoka ticha [70%] 2GB
3228. FILM_CZ/Z/závodník [66%] 2GB
3229. FILM_CZ/Z/zítra to roztočíme, drahoušku! [72%] 2GB
3230. FILM_CZ/Z/zítra vstanu a opařím se čajem [78%] 2GB
3231. FILM_CZ/Ú/útěk z alcatrazu [81%] 2GB
3232. FILM_CZ/Č/čarodějnice [70%] 2GB
3233. FILM_CZ/Č/červená světla [65%] 2GB
3234. FILM_CZ/Č/čističi [74%] 2GB
3235. FILM_CZ/Č/čtyři dohody [91%] 2GB
3236. FILM_CZ/Č/čtyři slunce [57%] 2GB
3237. FILM_CZ/Ř/řetězová reakce [59%] 2GB
3238. FILM_CZ/Š/šakalí léta [67%] 2GB
3239. FILM_CZ/Š/šeptej [65%] 2GB
3240. FILM_CZ/Š/šestý smysl [88%] 2GB
3241. FILM_CZ/Š/šokující odhalení [62%] 2GB
3242. FILM_CZ/Š/špinavá hra [74%] 2GB
3243. FILM_CZ/Š/špunti na vodě [58%] 2GB
3244. FILM_CZ/Š/švindlíři [55%] 2GB
3245. FILM_CZ/Š/šéfkuchař jack [50%] 2GB
3246. FILM_CZ/Š/šílenci na prknech [63%] 2GB
3247. FILM_CZ/Š/šílená noc [68%] 2GB
3248. FILM_CZ/Ž/ženy bez mužů [65%] 2GB
3249. FILM_CZ/Ž/ženy v běhu [70%] 2GB
3250. FILM_CZ/Ž/život [82%] 2GB
3251. FILM_CZ/Ž/život a neobyčejná dobrodružství vojáka ivana čonkina [70%] 2GB
3252. FILM_CZ/Ž/žádný systém není bezpečný [74%] 2GB
3335. FILM_CZ/A/angel-a [71%] 1GB
3403. FILM_CZ/C/crimson peak [65%] 1GB
3427. FILM_CZ/D/domino [59%] 1GB
3495. FILM_CZ/H/hellboy [68%] 1GB
3859. FILM_CZ/Z/zoe [61%] 1GB
3860. FILM_CZ/123/10 položek a méně [70%] 1GB
3861. FILM_CZ/123/17 dívek [54%] 1GB
3862. FILM_CZ/123/22. míle [63%] 1GB
3863. FILM_CZ/123/7 životů [73%] 1GB
3864. FILM_CZ/A/ach, ta láska pozemská [58%] 1GB
3865. FILM_CZ/A/alfons karásek v lázních [58%] 1GB
3866. FILM_CZ/A/andula vyhrála [74%] 1GB
3867. FILM_CZ/A/anděl exit [54%] 1GB
3868. FILM_CZ/A/angelika a král [64%] 1GB
3869. FILM_CZ/A/angelika a sultán [61%] 1GB
3870. FILM_CZ/A/angelika, markýza andělů [69%] 1GB
3871. FILM_CZ/B/bajkeři [68%] 1GB
3872. FILM_CZ/B/bankrot [62%] 1GB
3873. FILM_CZ/B/bathory [79%] 1GB
3874. FILM_CZ/B/blondýna na předpis [58%] 1GB
3875. FILM_CZ/B/bláznivá mise 4 [65%] 1GB
3876. FILM_CZ/B/bohatství chudých [62%] 1GB
3877. FILM_CZ/B/bohoušův syn [65%] 1GB
3878. FILM_CZ/B/buchty a klobásy [58%] 1GB
3879. FILM_CZ/B/báječná angelika [64%] 1GB
3880. FILM_CZ/B/bílý bílý den [66%] 1GB
3881. FILM_CZ/C/carmen a lola [64%] 1GB
3882. FILM_CZ/C/cela 211 [78%] 1GB
3883. FILM_CZ/C/cizí oběd [76%] 1GB
3884. FILM_CZ/C/cukor [69%] 1GB
3885. FILM_CZ/CH/chlap na střídačku [43%] 1GB
3886. FILM_CZ/D/deník bridget jonesové 2 [63%] 1GB
3887. FILM_CZ/D/deník bridget jonesové [77%] 1GB
3888. FILM_CZ/D/detektiv dee a záhada smrtícího ohně [58%] 1GB
3889. FILM_CZ/D/dovolená [63%] 1GB
3890. FILM_CZ/D/ducháček to zařídí [86%] 1GB
3891. FILM_CZ/D/dávka štěstí [57%] 1GB
3892. FILM_CZ/D/dívka s perlou [72%] 1GB
3893. FILM_CZ/D/dřív než půjdu spát [62%] 1GB
3894. FILM_CZ/D/důvod k rozvodu [72%] 1GB
3895. FILM_CZ/D/důvěrný nepřítel [57%] 1GB
3896. FILM_CZ/E/ententýny [61%] 1GB
3897. FILM_CZ/E/eva tropí hlouposti [77%] 1GB
3898. FILM_CZ/E/evropský gigolo [50%] 1GB
3899. FILM_CZ/E/extrémně zábavné sporty [77%] 1GB
3900. FILM_CZ/F/frajeři a frajerky [68%] 1GB
3901. FILM_CZ/G/garderobiér [81%] 1GB
3902. FILM_CZ/G/generace f [58%] 1GB
3903. FILM_CZ/H/hanna [68%] 1GB
3904. FILM_CZ/H/hlavní výhra [48%] 1GB
3905. FILM_CZ/H/hlavně nenápadně [52%] 1GB
3906. FILM_CZ/H/hodíme se k sobě, miláčku [63%] 1GB
3907. FILM_CZ/H/hokus pokus [73%] 1GB
3908. FILM_CZ/H/hologram pro krále [62%] 1GB
3909. FILM_CZ/H/honza málem králem [72%] 1GB
3910. FILM_CZ/H/horem pádem [66%] 1GB
3911. FILM_CZ/H/horečka sobotní noci [67%] 1GB
3912. FILM_CZ/H/hrob světlušek [85%] 1GB
3913. FILM_CZ/H/hymna anebo urfidlovačka [73%] 1GB
3914. FILM_CZ/J/jak se budí princezny [72%] 1GB
3915. FILM_CZ/J/jak svět přichází o básníky [71%] 1GB
3916. FILM_CZ/J/jen ho nechte, ať se bojí [58%] 1GB
3917. FILM_CZ/J/jestřábí žena [73%] 1GB
3918. FILM_CZ/J/jezero smrti [73%] 1GB
3919. FILM_CZ/J/jsem božská [57%] 1GB
3920. FILM_CZ/J/já, earl a holka na umření [74%] 1GB
3921. FILM_CZ/J/já, padouch [79%] 1GB
3922. FILM_CZ/K/kavkazský zajatec [82%] 1GB
3923. FILM_CZ/K/kojak - ariana [68%] 1GB
3924. FILM_CZ/K/konec světa ticha [73%] 1GB
3925. FILM_CZ/K/konečně spolu [57%] 1GB
3926. FILM_CZ/K/kouzelný náramek [55%] 1GB
3927. FILM_CZ/K/krakatit [74%] 1GB
3928. FILM_CZ/K/krysař [44%] 1GB
3929. FILM_CZ/K/král králů [65%] 1GB
3930. FILM_CZ/K/králova přízeň [71%] 1GB
3931. FILM_CZ/K/královské zacházení [44%] 1GB
3932. FILM_CZ/K/kumbhaméla aneb mraveniště boží [67%] 1GB
3933. FILM_CZ/L/lekce neslušného chování [71%] 1GB
3934. FILM_CZ/L/lásky mezi kapkami deště [81%] 1GB
3935. FILM_CZ/M/maigret klade past [81%] 1GB
3936. FILM_CZ/M/malá lež [67%] 1GB
3937. FILM_CZ/M/malý kousek nebe [64%] 1GB
3938. FILM_CZ/M/mandžuský kandidát [74%] 1GB
3939. FILM_CZ/M/marečku, podejte mi pero! [89%] 1GB
3940. FILM_CZ/M/maryša [74%] 1GB
3941. FILM_CZ/M/medvěd [77%] 1GB
3942. FILM_CZ/M/milovník po přechodu [60%] 1GB
3944. FILM_CZ/M/mlčení moře [79%] 1GB
3945. FILM_CZ/M/morganovi [47%] 1GB
3946. FILM_CZ/M/muž na měsíci [82%] 1GB
3947. FILM_CZ/N/nebezpečná metoda [63%] 1GB
3948. FILM_CZ/N/nebožtíci přejí lásce [84%] 1GB
3949. FILM_CZ/N/nejhorší člověk na světě [75%] 1GB
3950. FILM_CZ/N/nemesis [54%] 1GB
3951. FILM_CZ/N/nestyda [54%] 1GB
3952. FILM_CZ/N/noční hra [68%] 1GB
3953. FILM_CZ/N/nuda v brně [70%] 1GB
3954. FILM_CZ/N/návrat idiota [56%] 1GB
3955. FILM_CZ/O/o štěstí a kráse [64%] 1GB
3956. FILM_CZ/O/obhájce [81%] 1GB
3957. FILM_CZ/O/obsluhoval jsem anglického krále [62%] 1GB
3958. FILM_CZ/O/odvážný malý toaster [81%] 1GB
3959. FILM_CZ/O/operace spodnička [73%] 1GB
3960. FILM_CZ/O/oro - hledání opravdového boha [57%] 1GB
3961. FILM_CZ/O/ovečka shaun - vánoční příběh [78%] 1GB
3962. FILM_CZ/O/ošklivá slečna [72%] 1GB
3963. FILM_CZ/P/pat a mat ve filmu [71%] 1GB
3964. FILM_CZ/P/pat a mat znovu v akci [66%] 1GB
3965. FILM_CZ/P/po přečtení spalte [70%] 1GB
3966. FILM_CZ/P/pod kůží [53%] 1GB
3967. FILM_CZ/P/podfukářky [57%] 1GB
3968. FILM_CZ/P/pohádkář [42%] 1GB
3969. FILM_CZ/P/poslední dům nalevo [66%] 1GB
3970. FILM_CZ/P/poslední noc v římě [60%] 1GB
3971. FILM_CZ/P/poslední prázdniny [64%] 1GB
3972. FILM_CZ/P/poslední rudý princ [75%] 1GB
3973. FILM_CZ/P/pot a krev [71%] 1GB
3974. FILM_CZ/P/pouta [65%] 1GB
3975. FILM_CZ/P/povětří [62%] 1GB
3976. FILM_CZ/P/pozadí [59%] 1GB
3977. FILM_CZ/P/pražská 5 [76%] 1GB
3978. FILM_CZ/P/pretty woman [70%] 1GB
3979. FILM_CZ/P/princezna ze mlejna 2 [43%] 1GB
3980. FILM_CZ/P/princezna ze mlejna [64%] 1GB
3981. FILM_CZ/P/princové jsou na draka [72%] 1GB
3982. FILM_CZ/P/protivný sprostý holky [61%] 1GB
3983. FILM_CZ/P/průvodce ženatého muže [72%] 1GB
3984. FILM_CZ/P/putování se sobíkem [75%] 1GB
3985. FILM_CZ/P/puzzle [67%] 1GB
3986. FILM_CZ/P/pásla koně na betóně [73%] 1GB
3987. FILM_CZ/P/přepadení ve vzduchu [55%] 1GB
3988. FILM_CZ/P/přežila jsem picassa [67%] 1GB
3989. FILM_CZ/P/připoutejte se, prosím [79%] 1GB
3990. FILM_CZ/P/přání smrti [64%] 1GB
3991. FILM_CZ/P/přísně tajné premiéry [68%] 1GB
3992. FILM_CZ/P/příště budeme chytřejší, staroušku! [57%] 1GB
3993. FILM_CZ/R/rafťáci [57%] 1GB
3994. FILM_CZ/R/revizor [68%] 1GB
3995. FILM_CZ/R/rok ďábla [80%] 1GB
3996. FILM_CZ/R/román pro ženy [59%] 1GB
3997. FILM_CZ/R/rychlejší než smrt [69%] 1GB
3998. FILM_CZ/S/saló aneb 120 dnů sodomy [45%] 1GB
3999. FILM_CZ/S/sedm žen alfonse karáska [75%] 1GB
4000. FILM_CZ/S/sedím na konári a je mi dobre [84%] 1GB
4001. FILM_CZ/S/skřivánci na niti [85%] 1GB
4002. FILM_CZ/S/slečna od vody [60%] 1GB
4003. FILM_CZ/S/slimáci [59%] 1GB
4004. FILM_CZ/S/smečka [62%] 1GB
4005. FILM_CZ/S/smůla [51%] 1GB
4006. FILM_CZ/S/sny o zambezi [49%] 1GB
4007. FILM_CZ/S/sněženky a machři [71%] 1GB
4008. FILM_CZ/S/sophiina volba [78%] 1GB
4009. FILM_CZ/S/spolujízda [64%] 1GB
4010. FILM_CZ/S/stařec a moře [82%] 1GB
4011. FILM_CZ/S/studené nohy [64%] 1GB
4012. FILM_CZ/S/stříbrný vítr [71%] 1GB
4013. FILM_CZ/S/super prohnilí [74%] 1GB
4014. FILM_CZ/S/svatební cesta [74%] 1GB
4015. FILM_CZ/S/svatá čtveřice [44%] 1GB
4016. FILM_CZ/S/sůl nad zlato [61%] 1GB
4017. FILM_CZ/T/tajemství ocelového města [78%] 1GB
4018. FILM_CZ/T/temné síly [54%] 1GB
4019. FILM_CZ/T/trhák [69%] 1GB
4020. FILM_CZ/T/tron [68%] 1GB
4021. FILM_CZ/T/tunel do číny [71%] 1GB
4022. FILM_CZ/T/tři dny kondora [83%] 1GB
4023. FILM_CZ/U/u pěti veverek [74%] 1GB
4024. FILM_CZ/U/uličnice [73%] 1GB
4025. FILM_CZ/V/velbloud uchem jehly [66%] 1GB
4026. FILM_CZ/V/viditelný svět [64%] 1GB
4027. FILM_CZ/V/vlna zločinu [58%] 1GB
4028. FILM_CZ/V/vrásky z lásky [64%] 1GB
4029. FILM_CZ/V/vyměnila jsem si směnu [68%] 1GB
4030. FILM_CZ/V/válka roseových [83%] 1GB
4031. FILM_CZ/V/vánoční skřítek [58%] 1GB
4032. FILM_CZ/V/všechny moje lásky [71%] 1GB
4033. FILM_CZ/W/waynův svět 2 [54%] 1GB
4034. FILM_CZ/W/waynův svět [60%] 1GB
4035. FILM_CZ/Z/za humny je drak [60%] 1GB
4036. FILM_CZ/Z/zahradnictví dezertér [60%] 1GB
4037. FILM_CZ/Z/zrcadlení tmy [72%] 1GB
4038. FILM_CZ/Z/zákon mlčení [54%] 1GB
4039. FILM_CZ/Ú/útěk z ms-1 [62%] 1GB
4040. FILM_CZ/Č/čarodějův učeň [87%] 1GB
4041. FILM_CZ/Č/čas dluhů [52%] 1GB
4042. FILM_CZ/Č/čas sluhů [67%] 1GB
4043. FILM_CZ/Č/český sen [77%] 1GB
4044. FILM_CZ/Č/čokoláda [80%] 1GB
4045. FILM_CZ/Č/čtyři sluhové a kardinál [57%] 1GB
4046. FILM_CZ/Š/škoda lásky [63%] 1GB
4047. FILM_CZ/Š/špína londýna [76%] 1GB
4048. FILM_CZ/Ž/žena jde napřed [67%] 1GB
4049. FILM_CZ/Ž/ženský vtip [64%] 1GB
4050. FILM_CZ/Ž/ženy v pokušení [70%] 1GB
4051. FILM_CZ/Ž/žiletky [65%] 1GB
4052. FILM_CZ/Ž/život je krásný [88%] 1GB
