19. TV_CZ/arcane - league of legends [91%] 28GB
20. TV_CZ/byl jednou jeden život [91%] 5GB
32. TV_CZ/metoda markovič - hojer [90%] 12GB
33. TV_CZ/znovu u spejbla a hurvínka [90%] 1GB
44. TV_CZ/jak funguje vesmír [89%] 30GB
45. TV_CZ/jistě, pane ministře [89%] 5GB
46. TV_CZ/jistě, pane premiére [89%] 6GB
47. TV_CZ/legendy kriminalistiky [89%] 22GB
48. TV_CZ/pustina [89%] 16GB
70. TV_CZ/akta x [88%] 72GB
71. TV_CZ/bob a bobek [88%] 17GB
72. TV_CZ/krkonošské pohádky [88%] 28GB
73. TV_CZ/taková normální rodinka [88%] 5GB
97. TV_CZ/dobrodružství kriminalistiky [87%] 50GB
98. TV_CZ/hříšní lidé města pražského [87%] 52GB
99. TV_CZ/městečko south park [87%] 195GB
100. TV_CZ/všechny velké a malé bytosti [87%] 62GB
143. TV_CZ/ajťáci [86%] 27GB
144. TV_CZ/arabela [86%] 15GB
145. TV_CZ/jen počkej, zajíci! [86%] 4GB
146. TV_CZ/poirot [86%] 33GB
192. TV_CZ/bosch [85%] 48GB
193. TV_CZ/den šakala [85%] 34GB
194. TV_CZ/podivuhodná dobrodružství vladimíra smolíka [85%] 2GB
195. TV_CZ/soví dům [85%] 3GB
241. TV_CZ/chalupáři [84%] 22GB
242. TV_CZ/gumballův úžasný svět [84%] 6GB
243. TV_CZ/návrat sherlocka holmese [84%] 17GB
244. TV_CZ/odpočívej v pokoji [84%] 107GB
245. TV_CZ/podivuhodná dobrodružství rodiny smolíkovy [84%] 2GB
246. TV_CZ/rychlá rota chipa a dala [84%] 16GB
247. TV_CZ/červený trpaslík [84%] 27GB
283. TV_CZ/devadesátky [83%] 5GB
302. TV_CZ/barry [83%] 56GB
303. TV_CZ/chuck [83%] 32GB
304. TV_CZ/fallout [83%] 24GB
305. TV_CZ/hlava 22 [83%] 7GB
306. TV_CZ/jak jsem potkal vaši matku [83%] 36GB
307. TV_CZ/most! [83%] 4GB
308. TV_CZ/o zvířátkách pana krbce [83%] 1GB
309. TV_CZ/podivuhodné prázdniny rodiny smolíkovy [83%] 2GB
310. TV_CZ/simpsonovi [83%] 187GB
362. TV_CZ/columbo [82%] 49GB
363. TV_CZ/kosmo [82%] 6GB
364. TV_CZ/landman [82%] 31GB
365. TV_CZ/loki [82%] 7GB
366. TV_CZ/máša a medvěd [82%] 7GB
367. TV_CZ/penny dreadful [82%] 82GB
368. TV_CZ/všichni starostovi muži [82%] 18GB
369. TV_CZ/život s louiem [82%] 18GB
453. TV_CZ/kukačky [81%] 27GB
454. TV_CZ/studna [81%] 2GB
455. TV_CZ/zkáza dejvického divadla [81%] 3GB
536. TV_CZ/alfa samci [80%] 29GB
537. TV_CZ/bílý lotos [80%] 15GB
538. TV_CZ/komisař maigret [80%] 85GB
539. TV_CZ/mistři švindlu [80%] 23GB
540. TV_CZ/nobel [80%] 9GB
541. TV_CZ/okresní přebor [80%] 18GB
542. TV_CZ/profesionálové [80%] 19GB
543. TV_CZ/černá zmije [80%] 8GB
544. TV_CZ/čtvrtá hvězda [80%] 6GB
592. TV_CZ/my děti ze stanice zoo [79%] 11GB
609. TV_CZ/banda [79%] 107GB
610. TV_CZ/příběhy vesmíru [79%] 12GB
611. TV_CZ/sedm schodů k moci [79%] 12GB
612. TV_CZ/černá listina [79%] 64GB
701. TV_CZ/skřítek [78%] 3GB
716. TV_CZ/cesta ven [78%] 52GB
717. TV_CZ/most [78%] 94GB
718. TV_CZ/návrat do života [78%] 32GB
719. TV_CZ/půlnoční slunce [78%] 7GB
720. TV_CZ/zrádci [78%] 18GB
721. TV_CZ/šťastný louie [78%] 27GB
811. TV_CZ/mlsné medvědí příběhy [77%] 1GB
837. TV_CZ/maigret [77%] 9GB
838. TV_CZ/pád domu usherů [77%] 21GB
839. TV_CZ/randall a hopkirk [77%] 15GB
949. TV_CZ/podfukáři [76%] 27GB
979. TV_CZ/dobré ráno, brno! [76%] 20GB
980. TV_CZ/gumídci [76%] 16GB
981. TV_CZ/haló, haló [76%] 20GB
982. TV_CZ/létající čestmír [76%] 10GB
983. TV_CZ/piklírna [76%] 15GB
984. TV_CZ/rapl [76%] 23GB
985. TV_CZ/rédl [76%] 6GB
986. TV_CZ/smrt nás spojí [76%] 7GB
987. TV_CZ/zbouchnutá ze střední [76%] 10GB
988. TV_CZ/česká soda [76%] 4GB
1093. TV_CZ/co kdyby [75%] 44GB
1094. TV_CZ/dabing street [75%] 17GB
1095. TV_CZ/duna - proroctví [75%] 22GB
1096. TV_CZ/hawkeye [75%] 15GB
1097. TV_CZ/maxipes fík [75%] 6GB
1098. TV_CZ/měsíční svit [75%] 35GB
1099. TV_CZ/osudy dobrého vojáka švejka [75%] 1GB
1100. TV_CZ/pa a pi [75%] 10GB
1101. TV_CZ/stopaři [75%] 4GB
1102. TV_CZ/věčnost [75%] 19GB
1103. TV_CZ/zlý americký sen [75%] 3GB
1242. TV_CZ/pan tau [74%] 36GB
1243. TV_CZ/pipi dlouhá punčocha [74%] 4GB
1244. TV_CZ/sektor [74%] 24GB
1245. TV_CZ/sex o'clock [74%] 30GB
1246. TV_CZ/skuteční lidé [74%] 11GB
1247. TV_CZ/umění špionáže [74%] 9GB
1400. TV_CZ/brickleberry [73%] 3GB
1401. TV_CZ/duch [73%] 26GB
1402. TV_CZ/halo [73%] 69GB
1403. TV_CZ/lidské zdroje [73%] 6GB
1404. TV_CZ/litviněnko [73%] 8GB
1405. TV_CZ/trpaslík [73%] 5GB
1406. TV_CZ/třídní schůzka [73%] 4GB
1407. TV_CZ/život je hra [73%] 9GB
1549. TV_CZ/black snow [72%] 18GB
1550. TV_CZ/den po dni [72%] 6GB
1551. TV_CZ/lajna [72%] 17GB
1552. TV_CZ/mach a šebestová [72%] 6GB
1553. TV_CZ/odstřelovač [72%] 20GB
1554. TV_CZ/včelka mája [72%] 29GB
1711. TV_CZ/bakaláři [71%] 67GB
1712. TV_CZ/dva a půl chlapa [71%] 47GB
1713. TV_CZ/příšera ze starého soulu [71%] 7GB
1714. TV_CZ/stařík v utajení [71%] 9GB
1715. TV_CZ/zmizet beze stopy [71%] 14GB
1883. TV_CZ/jack reacher [70%] 17GB
1887. TV_CZ/manifest [70%] 16GB
1888. TV_CZ/miniaturista [70%] 4GB
1889. TV_CZ/problém tří těles [70%] 19GB
1890. TV_CZ/uklízečka [70%] 38GB
1891. TV_CZ/škola zlomených srdcí [70%] 9GB
1892. TV_CZ/šílenství [70%] 7GB
2025. TV_CZ/extraktoři [69%] 8GB
2026. TV_CZ/moře klidu [69%] 10GB
2027. TV_CZ/město, kde nikdo neumírá [69%] 10GB
2028. TV_CZ/pán prstenů [69%] 44GB
2029. TV_CZ/tore [69%] 7GB
2184. TV_CZ/cross [68%] 7GB
2185. TV_CZ/docent [68%] 21GB
2186. TV_CZ/emily v paříži [68%] 53GB
2187. TV_CZ/grimm [68%] 62GB
2188. TV_CZ/káťa a škubánek [68%] 11GB
2189. TV_CZ/návštěvníci [68%] 7GB
2190. TV_CZ/zločiny velké prahy [68%] 22GB
2341. TV_CZ/arabela se vrací aneb rumburak králem říše pohádek [67%] 14GB
2342. TV_CZ/nad ránem [67%] 22GB
2343. TV_CZ/uzumaki [67%] 3GB
2344. TV_CZ/ďáblova svatyně [67%] 6GB
2468. TV_CZ/chobotnice [66%] 27GB
2469. TV_CZ/citadel diana [66%] 7GB
2470. TV_CZ/comeback [66%] 15GB
2471. TV_CZ/kosí bratři [66%] 2GB
2612. TV_CZ/apatykář melchior [65%] 10GB
2613. TV_CZ/estonia [65%] 8GB
2614. TV_CZ/kabinet kuriozit guillerma del tora [65%] 11GB
2615. TV_CZ/králičí nora [65%] 10GB
2616. TV_CZ/la palma [65%] 4GB
2769. TV_CZ/teacup [64%] 16GB
2899. TV_CZ/prasátko peppa [63%] 6GB
2900. TV_CZ/to se vysvětlí, soudruzi [63%] 20GB
2901. TV_CZ/volha [63%] 14GB
3035. TV_CZ/vytoč mého agenta [62%] 2GB
3148. TV_CZ/náhradníci [61%] 6GB
3149. TV_CZ/praha ožralá [61%] 9GB
3238. TV_CZ/expanze [60%] 35GB
3239. TV_CZ/přátelé [60%] 41GB
3240. TV_CZ/summer dělá vlny [60%] 10GB
3345. TV_CZ/cesta kolem světa za 80 dní [59%] 16GB
3346. TV_CZ/franšíza [59%] 16GB
3347. TV_CZ/gangy v oslu [59%] 6GB
3348. TV_CZ/hustší než voda [59%] 14GB
3349. TV_CZ/index strachu [59%] 11GB
3350. TV_CZ/vlastně se nic nestalo [59%] 6GB
3351. TV_CZ/všichni lžou [59%] 19GB
3352. TV_CZ/šmoulové [59%] 11GB
3462. TV_CZ/adorace [58%] 6GB
3463. TV_CZ/hospoda [58%] 7GB
3464. TV_CZ/naměkko [58%] 5GB
3575. TV_CZ/falešný profil [57%] 12GB
3645. TV_CZ/pat a mat [56%] 12GB
3646. TV_CZ/ztraceni ve vesmíru [56%] 74GB
3765. TV_CZ/hříšní lidé města brněnského [54%] 3GB
3766. TV_CZ/tajuplný svět alex mackové [54%] 7GB
3828. TV_CZ/tlapková patrola [53%] 12GB
4030. TV_CZ/limity [46%] 2GB
4060. TV_CZ/poslední sezóna [43%] 4GB
